id,code,name,user_type_id/id,reconcile,chart_template_id:id
lu_2011_account_101,101,Subscribedcapital,account.data_account_type_equity,FALSE,lu_2011_chart_1
lu_2011_account_102,102,Subscribedcapitalnotcalled,account.data_account_type_fixed_assets,FALSE,lu_2011_chart_1
lu_2011_account_103,103,Subscribedcapitalcalledbutunpaid,account.data_account_type_fixed_assets,FALSE,lu_2011_chart_1
lu_2020_account_104,104,"Capitalofindividualcompanies,corporatepartnershipsandsimilar",account.data_account_type_equity,FALSE,lu_2011_chart_1
lu_2011_account_105,105,Endowmentofbranches,account.data_account_type_equity,FALSE,lu_2011_chart_1
lu_2011_account_10611,10611,Cashwithdrawals(dailylife),account.data_account_type_equity,FALSE,lu_2011_chart_1
lu_2011_account_10612,10612,"Withdrawalsofmerchandise,finishedproductsandservices(atcost)",account.data_account_type_equity,FALSE,lu_2011_chart_1
lu_2011_account_10613,10613,Privateshareofmedicalservicesexpenses,account.data_account_type_equity,FALSE,lu_2011_chart_1
lu_2011_account_106141,106141,Lifeinsurance,account.data_account_type_equity,FALSE,lu_2011_chart_1
lu_2011_account_106142,106142,Accidentinsurance,account.data_account_type_equity,FALSE,lu_2011_chart_1
lu_2011_account_106143,106143,Fireinsurance,account.data_account_type_equity,FALSE,lu_2011_chart_1
lu_2011_account_106144,106144,Third-partyinsurance,account.data_account_type_equity,FALSE,lu_2011_chart_1
lu_2011_account_106145,106145,Fullcoverageinsurance,account.data_account_type_equity,FALSE,lu_2011_chart_1
lu_2011_account_106148,106148,Otherprivateinsurancepremiums,account.data_account_type_equity,FALSE,lu_2011_chart_1
lu_2011_account_106151,106151,SocialSecurity,account.data_account_type_equity,FALSE,lu_2011_chart_1
lu_2011_account_106152,106152,Childbenefitoffice,account.data_account_type_equity,FALSE,lu_2011_chart_1
lu_2011_account_106153,106153,Healthinsurancefunds,account.data_account_type_equity,FALSE,lu_2011_chart_1
lu_2011_account_106154,106154,Deathandotherhealthinsurancefunds,account.data_account_type_equity,FALSE,lu_2011_chart_1
lu_2011_account_106158,106158,Othercontributions,account.data_account_type_equity,FALSE,lu_2011_chart_1
lu_2011_account_106161,106161,Wages,account.data_account_type_equity,FALSE,lu_2011_chart_1
lu_2011_account_106162,106162,Rent,account.data_account_type_equity,FALSE,lu_2011_chart_1
lu_2011_account_106163,106163,"Heating,gas,electricity",account.data_account_type_equity,FALSE,lu_2011_chart_1
lu_2011_account_106164,106164,Water,account.data_account_type_equity,FALSE,lu_2011_chart_1
lu_2011_account_106165,106165,Telephone,account.data_account_type_equity,FALSE,lu_2011_chart_1
lu_2011_account_106166,106166,Car,account.data_account_type_equity,FALSE,lu_2011_chart_1
lu_2011_account_106168,106168,Otherinkindwithdrawals,account.data_account_type_equity,FALSE,lu_2011_chart_1
lu_2011_account_106171,106171,Privatefurniture,account.data_account_type_equity,FALSE,lu_2011_chart_1
lu_2011_account_106172,106172,Privatecar,account.data_account_type_equity,FALSE,lu_2011_chart_1
lu_2011_account_106173,106173,Privateheldsecurities,account.data_account_type_equity,FALSE,lu_2011_chart_1
lu_2011_account_106174,106174,Privatebuildings,account.data_account_type_equity,FALSE,lu_2011_chart_1
lu_2011_account_106178,106178,Otheracquisitions,account.data_account_type_equity,FALSE,lu_2011_chart_1
lu_2011_account_106181,106181,Incometaxpaid,account.data_account_type_equity,FALSE,lu_2011_chart_1
lu_2011_account_106183,106183,Municipalbusinesstax-paymentinarrears,account.data_account_type_equity,FALSE,lu_2011_chart_1
lu_2011_account_106188,106188,Othertaxes,account.data_account_type_equity,FALSE,lu_2011_chart_1
lu_2011_account_106191,106191,Repairstoprivatebuildings,account.data_account_type_equity,FALSE,lu_2011_chart_1
lu_2011_account_106192,106192,Depositsonprivatefinancialaccounts,account.data_account_type_equity,FALSE,lu_2011_chart_1
lu_2011_account_106193,106193,Refundofprivatedebts,account.data_account_type_equity,FALSE,lu_2011_chart_1
lu_2011_account_106194,106194,Giftsandallowancetochildren,account.data_account_type_equity,FALSE,lu_2011_chart_1
lu_2011_account_106195,106195,Inheritancetaxesandmutationtaxduetodeath,account.data_account_type_equity,FALSE,lu_2011_chart_1
lu_2011_account_106198,106198,Otherspecialprivatewithdrawals,account.data_account_type_equity,FALSE,lu_2011_chart_1
lu_2011_account_10621,10621,Inheritanceordonation,account.data_account_type_equity,FALSE,lu_2011_chart_1
lu_2011_account_10622,10622,Personalholdings,account.data_account_type_equity,FALSE,lu_2011_chart_1
lu_2011_account_10623,10623,Privateloans,account.data_account_type_equity,FALSE,lu_2011_chart_1
lu_2011_account_106241,106241,Privatefurniture,account.data_account_type_equity,FALSE,lu_2011_chart_1
lu_2011_account_106242,106242,Privatecar,account.data_account_type_equity,FALSE,lu_2011_chart_1
lu_2011_account_106243,106243,Privateshares/bonds,account.data_account_type_equity,FALSE,lu_2011_chart_1
lu_2011_account_106244,106244,Privatebuildings,account.data_account_type_equity,FALSE,lu_2011_chart_1
lu_2011_account_106248,106248,Otherdisposals,account.data_account_type_equity,FALSE,lu_2011_chart_1
lu_2011_account_10625,10625,Receivedrents,account.data_account_type_equity,FALSE,lu_2011_chart_1
lu_2011_account_10626,10626,Receivedwagesorpensions,account.data_account_type_equity,FALSE,lu_2011_chart_1
lu_2011_account_10627,10627,Receivedchildbenefit,account.data_account_type_equity,FALSE,lu_2011_chart_1
lu_2011_account_106281,106281,Incometax,account.data_account_type_equity,FALSE,lu_2011_chart_1
lu_2011_account_106284,106284,Municipalbusinesstax(MBT),account.data_account_type_equity,FALSE,lu_2011_chart_1
lu_2011_account_106288,106288,Othertaxrefunds,account.data_account_type_equity,FALSE,lu_2011_chart_1
lu_2011_account_10629,10629,Businessshareinprivateexpenses,account.data_account_type_equity,FALSE,lu_2011_chart_1
lu_2011_account_111,111,Sharepremium,account.data_account_type_equity,FALSE,lu_2011_chart_1
lu_2011_account_112,112,Mergerpremium,account.data_account_type_equity,FALSE,lu_2011_chart_1
lu_2011_account_113,113,Contributionpremium,account.data_account_type_equity,FALSE,lu_2011_chart_1
lu_2011_account_114,114,Premiumsonconversionofbondsintoshares,account.data_account_type_equity,FALSE,lu_2011_chart_1
lu_2011_account_115,115,Capitalcontributionwithoutissueofshares,account.data_account_type_equity,FALSE,lu_2011_chart_1
lu_2011_account_122,122,Reservesinapplicationoftheequitymethod,account.data_account_type_equity,FALSE,lu_2011_chart_1
lu_2011_account_123,123,Temporarilynottaxablecurrencytranslationadjustments,account.data_account_type_equity,FALSE,lu_2011_chart_1
lu_2011_account_128,128,Otherrevaluationreserves,account.data_account_type_equity,FALSE,lu_2011_chart_1
lu_2011_account_131,131,Legalreserve,account.data_account_type_equity,FALSE,lu_2011_chart_1
lu_2011_account_132,132,Reservesforownsharesorowncorporateunits,account.data_account_type_equity,FALSE,lu_2011_chart_1
lu_2011_account_133,133,Reservesprovidedforbythearticlesofassociation,account.data_account_type_equity,FALSE,lu_2011_chart_1
lu_2011_account_1381,1381,Otherreservesavailablefordistribution,account.data_account_type_equity,FALSE,lu_2011_chart_1
lu_2020_account_13821,13821,Reservefornetwealthtax(NWT),account.data_account_type_equity,FALSE,lu_2011_chart_1
lu_2020_account_13822,13822,Reservesinapplicationoffairvalue,account.data_account_type_equity,FALSE,lu_2011_chart_1
lu_2020_account_138231,138231,Temporarilynottaxablecapitalgainstoreinvest,account.data_account_type_equity,FALSE,lu_2011_chart_1
lu_2020_account_138232,138232,Temporarilynottaxablecapitalgainsreinvested,account.data_account_type_equity,FALSE,lu_2011_chart_1
lu_2020_account_13828,13828,Reservesnotavailablefordistributionnotmentionedabove,account.data_account_type_equity,FALSE,lu_2011_chart_1
lu_2020_account_1411,1411,Resultsbroughtforwardintheprocessofassignment,account.data_account_type_equity,FALSE,lu_2011_chart_1
lu_2020_account_1412,1412,Resultsbroughtforward(assigned),account.data_account_type_equity,FALSE,lu_2011_chart_1
lu_2011_account_142,142,Resultforthefinancialyear,account.data_unaffected_earnings,FALSE,lu_2011_chart_1
lu_2011_account_15,15,Interimdividends,account.data_account_type_equity,FALSE,lu_2011_chart_1
lu_2020_account_1611,1611,Developmentcosts,account.data_account_type_equity,FALSE,lu_2011_chart_1
lu_2020_account_16121,16121,Acquiredagainstpayment(exceptGoodwill),account.data_account_type_equity,FALSE,lu_2011_chart_1
lu_2020_account_16122,16122,Createdbytheundertakingitself,account.data_account_type_equity,FALSE,lu_2011_chart_1
lu_2020_account_1613,1613,Goodwillacquiredforconsideration,account.data_account_type_equity,FALSE,lu_2011_chart_1
lu_2020_account_1621,1621,"Subsidiesonland,fitting-outsandbuildings",account.data_account_type_equity,FALSE,lu_2011_chart_1
lu_2020_account_1622,1622,Subsidiesonplantandmachinery,account.data_account_type_equity,FALSE,lu_2011_chart_1
lu_2020_account_1623,1623,"Subsidiesonotherfixtures,fittings,toolsandequipment(includingrollingstock)",account.data_account_type_equity,FALSE,lu_2011_chart_1
lu_2011_account_168,168,Othercapitalinvestmentsubsidies,account.data_account_type_equity,FALSE,lu_2011_chart_1
lu_2011_account_181,181,Provisionsforpensionsandsimilarobligations,account.data_account_type_non_current_liabilities,FALSE,lu_2011_chart_1
lu_2020_account_182,182,Provisionsfortaxation,account.data_account_type_non_current_liabilities,FALSE,lu_2011_chart_1
lu_2011_account_183,183,Deferredtaxprovisions,account.data_account_type_non_current_liabilities,FALSE,lu_2011_chart_1
lu_2011_account_1881,1881,Operatingprovisions,account.data_account_type_non_current_liabilities,FALSE,lu_2011_chart_1
lu_2011_account_1882,1882,Financialprovisions,account.data_account_type_non_current_liabilities,FALSE,lu_2011_chart_1
lu_2020_account_1921,1921,Dueandpayablewithinoneyear,account.data_account_type_current_liabilities,FALSE,lu_2011_chart_1
lu_2020_account_1922,1922,Dueandpayableaftermorethanoneyear,account.data_account_type_non_current_liabilities,FALSE,lu_2011_chart_1
lu_2020_account_1931,1931,Dueandpayablewithinoneyear,account.data_account_type_current_liabilities,FALSE,lu_2011_chart_1
lu_2020_account_1932,1932,Dueandpayableaftermorethanoneyear,account.data_account_type_non_current_liabilities,FALSE,lu_2011_chart_1
lu_2020_account_1941,1941,Dueandpayablewithinoneyear,account.data_account_type_current_liabilities,FALSE,lu_2011_chart_1
lu_2020_account_1942,1942,Dueandpayableaftermorethanoneyear,account.data_account_type_non_current_liabilities,FALSE,lu_2011_chart_1
lu_2011_account_201,201,Set-upandstart-upcosts,account.data_account_type_fixed_assets,FALSE,lu_2011_chart_1
lu_2011_account_203,203,"Expensesforincreasesincapitalandforvariousoperations(merger,demerger,changeoflegalform)",account.data_account_type_fixed_assets,FALSE,lu_2011_chart_1
lu_2011_account_204,204,Loanissuancesexpenses,account.data_account_type_fixed_assets,FALSE,lu_2011_chart_1
lu_2011_account_208,208,Othersimilarexpenses,account.data_account_type_fixed_assets,FALSE,lu_2011_chart_1
lu_2011_account_211,211,Developmentcosts,account.data_account_type_fixed_assets,FALSE,lu_2011_chart_1
lu_2011_account_21211,21211,Concessions,account.data_account_type_fixed_assets,FALSE,lu_2011_chart_1
lu_2011_account_21212,21212,Patents,account.data_account_type_fixed_assets,FALSE,lu_2011_chart_1
lu_2011_account_21213,21213,Softwarelicences,account.data_account_type_fixed_assets,FALSE,lu_2011_chart_1
lu_2011_account_21214,21214,Trademarksandfranchises,account.data_account_type_fixed_assets,FALSE,lu_2011_chart_1
lu_2011_account_212151,212151,Copyrightsandreproductionrights,account.data_account_type_fixed_assets,FALSE,lu_2011_chart_1
lu_2011_account_212152,212152,Greenhousegasandsimilaremissionquotas,account.data_account_type_fixed_assets,FALSE,lu_2011_chart_1
lu_2011_account_212158,212158,Othersimilarrightsandassetsacquiredforconsideration,account.data_account_type_fixed_assets,FALSE,lu_2011_chart_1
lu_2011_account_21221,21221,Concessions,account.data_account_type_fixed_assets,FALSE,lu_2011_chart_1
lu_2011_account_21222,21222,Patents,account.data_account_type_fixed_assets,FALSE,lu_2011_chart_1
lu_2011_account_21223,21223,Softwarelicences,account.data_account_type_fixed_assets,FALSE,lu_2011_chart_1
lu_2011_account_21224,21224,Trademarksandfranchises,account.data_account_type_fixed_assets,FALSE,lu_2011_chart_1
lu_2011_account_212251,212251,Copyrightsandreproductionrights,account.data_account_type_fixed_assets,FALSE,lu_2011_chart_1
lu_2011_account_212258,212258,Othersimilarrightsandassetscreatedbytheundertakingitself,account.data_account_type_fixed_assets,FALSE,lu_2011_chart_1
lu_2011_account_213,213,Goodwillacquiredforconsideration,account.data_account_type_fixed_assets,FALSE,lu_2011_chart_1
lu_2020_account_214,214,Downpaymentsandintangiblefixedassetsunderdevelopment,account.data_account_type_fixed_assets,FALSE,lu_2011_chart_1
lu_2020_account_221111,221111,Developedland,account.data_account_type_fixed_assets,FALSE,lu_2011_chart_1
lu_2020_account_221112,221112,Propertyrightsandsimilar,account.data_account_type_fixed_assets,FALSE,lu_2011_chart_1
lu_2020_account_221118,221118,Otherland,account.data_account_type_fixed_assets,FALSE,lu_2011_chart_1
lu_2011_account_22112,22112,Landinforeigncountries,account.data_account_type_fixed_assets,FALSE,lu_2011_chart_1
lu_2011_account_22121,22121,Fixturesandfitting-outsoflandinLuxembourg,account.data_account_type_fixed_assets,FALSE,lu_2011_chart_1
lu_2011_account_22122,22122,Fixturesandfitting-outsoflandinforeigncountries,account.data_account_type_fixed_assets,FALSE,lu_2011_chart_1
lu_2020_account_221311,221311,Residentialbuildings,account.data_account_type_fixed_assets,FALSE,lu_2011_chart_1
lu_2020_account_221312,221312,Non-residentialbuildings,account.data_account_type_fixed_assets,FALSE,lu_2011_chart_1
lu_2020_account_221313,221313,Mixed-usebuildings,account.data_account_type_fixed_assets,FALSE,lu_2011_chart_1
lu_2020_account_221318,221318,Otherbuildings,account.data_account_type_fixed_assets,FALSE,lu_2011_chart_1
lu_2011_account_22132,22132,Buildingsinforeigncountries,account.data_account_type_fixed_assets,FALSE,lu_2011_chart_1
lu_2020_account_22141,22141,Fixturesandfitting-outsofbuildingsinLuxembourg,account.data_account_type_fixed_assets,FALSE,lu_2011_chart_1
lu_2020_account_22142,22142,Fixturesandfitting-outsofbuildingsinforeigncountries,account.data_account_type_fixed_assets,FALSE,lu_2011_chart_1
lu_2020_account_22151,22151,InvestmentpropertiesinLuxembourg,account.data_account_type_fixed_assets,FALSE,lu_2011_chart_1
lu_2020_account_22152,22152,Investmentpropertiesinforeigncountries,account.data_account_type_fixed_assets,FALSE,lu_2011_chart_1
lu_2011_account_2221,2221,Plant,account.data_account_type_fixed_assets,FALSE,lu_2011_chart_1
lu_2011_account_2222,2222,Machinery,account.data_account_type_fixed_assets,FALSE,lu_2011_chart_1
lu_2011_account_2231,2231,Transportationandhandlingequipment,account.data_account_type_fixed_assets,FALSE,lu_2011_chart_1
lu_2011_account_2232,2232,Motorvehicles,account.data_account_type_fixed_assets,FALSE,lu_2011_chart_1
lu_2011_account_2233,2233,Tools,account.data_account_type_fixed_assets,FALSE,lu_2011_chart_1
lu_2011_account_2234,2234,Furniture,account.data_account_type_fixed_assets,FALSE,lu_2011_chart_1
lu_2011_account_2235,2235,Computerequipment,account.data_account_type_fixed_assets,FALSE,lu_2011_chart_1
lu_2011_account_2236,2236,Livestock,account.data_account_type_fixed_assets,FALSE,lu_2011_chart_1
lu_2011_account_2237,2237,Returnablepackaging,account.data_account_type_fixed_assets,FALSE,lu_2011_chart_1
lu_2011_account_2238,2238,Otherfixtures,account.data_account_type_fixed_assets,FALSE,lu_2011_chart_1
lu_2011_account_22411,22411,"Land,fitting-outsandbuildingsinLuxembourg",account.data_account_type_fixed_assets,FALSE,lu_2011_chart_1
lu_2011_account_22412,22412,"Land,fitting-outsandbuildingsinforeigncountries",account.data_account_type_fixed_assets,FALSE,lu_2011_chart_1
lu_2011_account_2242,2242,Plantandmachinery,account.data_account_type_fixed_assets,FALSE,lu_2011_chart_1
lu_2011_account_2243,2243,"Otherfixturesandfittings,toolsandequipment(includingrollingstock)",account.data_account_type_fixed_assets,FALSE,lu_2011_chart_1
lu_2011_account_231,231,Sharesinaffiliatedundertakings,account.data_account_type_fixed_assets,FALSE,lu_2011_chart_1
lu_2011_account_232,232,Amountsowedbyaffiliatedundertakings,account.data_account_type_fixed_assets,FALSE,lu_2011_chart_1
lu_2011_account_233,233,Participatinginterests,account.data_account_type_fixed_assets,FALSE,lu_2011_chart_1
lu_2011_account_234,234,Amountsowedbyundertakingswithwhichtheundertakingislinkedbyvirtueofparticipatinginterests,account.data_account_type_fixed_assets,FALSE,lu_2011_chart_1
lu_2020_account_235111,235111,Listedshares,account.data_account_type_fixed_assets,FALSE,lu_2011_chart_1
lu_2020_account_235112,235112,Unlistedshares,account.data_account_type_fixed_assets,FALSE,lu_2011_chart_1
lu_2011_account_23518,23518,Othersecuritiesheldasfixedassets(equityright),account.data_account_type_fixed_assets,FALSE,lu_2011_chart_1
lu_2011_account_23521,23521,Debentures,account.data_account_type_fixed_assets,FALSE,lu_2011_chart_1
lu_2011_account_23528,23528,Othersecuritiesheldasfixedassets(creditor'sright),account.data_account_type_fixed_assets,FALSE,lu_2011_chart_1
lu_2020_account_2353,2353,Sharesofcollectiveinvestmentfunds,account.data_account_type_fixed_assets,FALSE,lu_2011_chart_1
lu_2011_account_2358,2358,Othersecuritiesheldasfixedassets,account.data_account_type_fixed_assets,FALSE,lu_2011_chart_1
lu_2020_account_2361,2361,Loans,account.data_account_type_fixed_assets,FALSE,lu_2011_chart_1
lu_2020_account_2362,2362,Depositsandguaranteespaid,account.data_account_type_fixed_assets,FALSE,lu_2011_chart_1
lu_2011_account_2363,2363,Long-termreceivables,account.data_account_type_fixed_assets,FALSE,lu_2011_chart_1
lu_2011_account_301,301,Inventoriesofrawmaterials,account.data_account_type_current_assets,FALSE,lu_2011_chart_1
lu_2020_account_303,303,Inventoriesofconsumablematerialsandsupplies,account.data_account_type_current_assets,FALSE,lu_2011_chart_1
lu_2020_account_304,304,Inventoriesofpackaging,account.data_account_type_current_assets,FALSE,lu_2011_chart_1
lu_2011_account_311,311,Inventoriesofworkinprogress,account.data_account_type_current_assets,FALSE,lu_2011_chart_1
lu_2011_account_312,312,Contractsinprogress-goods,account.data_account_type_current_assets,FALSE,lu_2011_chart_1
lu_2011_account_313,313,Contractsinprogress-services,account.data_account_type_current_assets,FALSE,lu_2011_chart_1
lu_2011_account_314,314,Buildingsunderconstruction,account.data_account_type_current_assets,FALSE,lu_2011_chart_1
lu_2011_account_321,321,Inventoriesoffinishedgoods,account.data_account_type_current_assets,FALSE,lu_2011_chart_1
lu_2011_account_322,322,Inventoriesofsemi-finishedgoods,account.data_account_type_current_assets,FALSE,lu_2011_chart_1
lu_2020_account_323,323,"Inventoriesofresidualgoods(waste,rejectedandrecuperablematerial)",account.data_account_type_current_assets,FALSE,lu_2011_chart_1
lu_2020_account_361,361,Inventoriesofmerchandise,account.data_account_type_current_assets,FALSE,lu_2011_chart_1
lu_2020_account_3621,3621,InventoriesoflandforresaleinLuxembourg,account.data_account_type_current_assets,FALSE,lu_2011_chart_1
lu_2020_account_3622,3622,Inventoriesoflandforresaleinforeigncountries,account.data_account_type_current_assets,FALSE,lu_2011_chart_1
lu_2020_account_3631,3631,InventoriesofbuildingsforresaleinLuxembourg,account.data_account_type_current_assets,FALSE,lu_2011_chart_1
lu_2020_account_3632,3632,Inventoriesofbuildingsforresaleinforeigncountries,account.data_account_type_current_assets,FALSE,lu_2011_chart_1
lu_2020_account_37,37,Downpaymentsonaccountoninventories,account.data_account_type_current_assets,FALSE,lu_2011_chart_1
lu_2011_account_4011,4011,Customers,account.data_account_type_receivable,TRUE,lu_2011_chart_1
lu_2011_account_40111,40111,Customers(PoS),account.data_account_type_receivable,TRUE,lu_2011_chart_1
lu_2011_account_4012,4012,Customers-Receivablebillsofexchange,account.data_account_type_current_assets,TRUE,lu_2011_chart_1
lu_2011_account_4013,4013,Doubtfulordisputedcustomers,account.data_account_type_current_assets,TRUE,lu_2011_chart_1
lu_2011_account_4014,4014,Customers-Unbilledsales,account.data_account_type_current_assets,TRUE,lu_2011_chart_1
lu_2011_account_4015,4015,Customerswithacreditbalance,account.data_account_type_current_liabilities,TRUE,lu_2011_chart_1
lu_2011_account_4019,4019,Valueadjustments,account.data_account_type_current_assets,FALSE,lu_2011_chart_1
lu_2011_account_4021,4021,Customers,account.data_account_type_receivable,TRUE,lu_2011_chart_1
lu_2011_account_4025,4025,Customerswithcreditorbalance,account.data_account_type_current_assets,TRUE,lu_2011_chart_1
lu_2011_account_4029,4029,Valueadjustments,account.data_account_type_current_assets,FALSE,lu_2011_chart_1
lu_2011_account_41111,41111,Tradereceivables,account.data_account_type_current_assets,FALSE,lu_2011_chart_1
lu_2011_account_41112,41112,Loansandadvances,account.data_account_type_current_assets,FALSE,lu_2011_chart_1
lu_2011_account_41118,41118,Otherreceivables,account.data_account_type_current_assets,FALSE,lu_2011_chart_1
lu_2011_account_41119,41119,Valueadjustments,account.data_account_type_current_assets,FALSE,lu_2011_chart_1
lu_2011_account_41121,41121,Tradereceivables,account.data_account_type_current_assets,FALSE,lu_2011_chart_1
lu_2011_account_41122,41122,Loansandadvances,account.data_account_type_current_assets,FALSE,lu_2011_chart_1
lu_2011_account_41128,41128,Otherreceivables,account.data_account_type_current_assets,FALSE,lu_2011_chart_1
lu_2011_account_41129,41129,Valueadjustments,account.data_account_type_current_assets,FALSE,lu_2011_chart_1
lu_2011_account_41211,41211,Tradereceivables,account.data_account_type_current_assets,FALSE,lu_2011_chart_1
lu_2011_account_41212,41212,Loansandadvances,account.data_account_type_current_assets,FALSE,lu_2011_chart_1
lu_2011_account_41218,41218,Otherreceivables,account.data_account_type_current_assets,FALSE,lu_2011_chart_1
lu_2011_account_41219,41219,Valueadjustments,account.data_account_type_current_assets,FALSE,lu_2011_chart_1
lu_2011_account_41221,41221,Tradereceivables,account.data_account_type_current_assets,FALSE,lu_2011_chart_1
lu_2011_account_41222,41222,Loansandadvances,account.data_account_type_current_assets,FALSE,lu_2011_chart_1
lu_2011_account_41228,41228,Otherreceivables,account.data_account_type_current_assets,FALSE,lu_2011_chart_1
lu_2011_account_41229,41229,Valueadjustments,account.data_account_type_current_assets,FALSE,lu_2011_chart_1
lu_2011_account_42111,42111,Advancesanddownpayments,account.data_account_type_current_assets,FALSE,lu_2011_chart_1
lu_2011_account_42119,42119,Valueadjustments,account.data_account_type_current_assets,FALSE,lu_2011_chart_1
lu_2020_account_4212,4212,Amountsowedbypartnersandshareholders(othersthanfromaffiliatedundertakings),account.data_account_type_current_assets,FALSE,lu_2011_chart_1
lu_2011_account_42131,42131,Investmentsubsidies,account.data_account_type_current_assets,FALSE,lu_2011_chart_1
lu_2011_account_42132,42132,Operatingsubsidies,account.data_account_type_current_assets,FALSE,lu_2011_chart_1
lu_2011_account_42138,42138,Othersubsidies,account.data_account_type_current_assets,FALSE,lu_2011_chart_1
lu_2020_account_42141,42141,Corporateincometax,account.data_account_type_current_assets,FALSE,lu_2011_chart_1
lu_2020_account_42142,42142,Municipalbusinesstax,account.data_account_type_current_assets,FALSE,lu_2011_chart_1
lu_2020_account_42143,42143,Netwealthtax,account.data_account_type_current_assets,FALSE,lu_2011_chart_1
lu_2020_account_42144,42144,Withholdingtaxonwagesandsalaries,account.data_account_type_current_assets,FALSE,lu_2011_chart_1
lu_2020_account_42145,42145,Withholdingtaxonfinancialinvestmentincome,account.data_account_type_current_assets,FALSE,lu_2011_chart_1
lu_2020_account_42146,42146,Withholdingtaxondirector'sfees,account.data_account_type_current_assets,FALSE,lu_2011_chart_1
lu_2020_account_42148,42148,ACD-Otheramountsreceivable,account.data_account_type_current_assets,FALSE,lu_2011_chart_1
lu_2011_account_4215,4215,CustomsandExciseAuthority(ADA),account.data_account_type_current_assets,FALSE,lu_2011_chart_1
lu_2020_account_421611,421611,VATpaidandrecoverable,account.data_account_type_current_assets,FALSE,lu_2011_chart_1
lu_2011_account_421612,421612,VATreceivable,account.data_account_type_current_assets,FALSE,lu_2011_chart_1
lu_2011_account_421613,421613,VATdownpaymentsmade,account.data_account_type_current_assets,FALSE,lu_2011_chart_1
lu_2011_account_421618,421618,VAT-Otherreceivables,account.data_account_type_current_assets,FALSE,lu_2011_chart_1
lu_2011_account_421621,421621,Registrationduties,account.data_account_type_current_assets,FALSE,lu_2011_chart_1
lu_2011_account_421622,421622,Subscriptiontax,account.data_account_type_current_assets,FALSE,lu_2011_chart_1
lu_2011_account_421628,421628,Otherindirecttaxes,account.data_account_type_current_assets,FALSE,lu_2011_chart_1
lu_2011_account_42168,42168,Otherreceivables,account.data_account_type_current_assets,FALSE,lu_2011_chart_1
lu_2011_account_42171,42171,SocialSecurityoffice(CCSS),account.data_account_type_current_assets,FALSE,lu_2011_chart_1
lu_2011_account_42172,42172,Foreignsocialsecurityoffices,account.data_account_type_current_assets,FALSE,lu_2011_chart_1
lu_2011_account_42178,42178,Othersocialbodies,account.data_account_type_current_assets,FALSE,lu_2011_chart_1
lu_2011_account_421811,421811,ForeignVAT,account.data_account_type_current_assets,FALSE,lu_2011_chart_1
lu_2011_account_421818,421818,Otherforeigntaxes,account.data_account_type_current_assets,FALSE,lu_2011_chart_1
lu_2020_account_42187,42187,Derivativefinancialinstruments,account.data_account_type_current_assets,FALSE,lu_2011_chart_1
lu_2011_account_42188,42188,Othermiscellaneousreceivables,account.data_account_type_current_assets,FALSE,lu_2011_chart_1
lu_2011_account_42189,42189,Valueadjustments,account.data_account_type_current_assets,FALSE,lu_2011_chart_1
lu_2020_account_4221,4221,Staff-advancesanddownpayments,account.data_account_type_current_assets,FALSE,lu_2011_chart_1
lu_2020_account_4222,4222,Amountsowedbypartnersandshareholders(othersthanfromaffiliatedundertakings),account.data_account_type_current_assets,FALSE,lu_2011_chart_1
lu_2011_account_42231,42231,Investmentsubsidies,account.data_account_type_current_assets,FALSE,lu_2011_chart_1
lu_2011_account_42232,42232,Operatingsubsidies,account.data_account_type_current_assets,FALSE,lu_2011_chart_1
lu_2011_account_42238,42238,Othersubsidies,account.data_account_type_current_assets,FALSE,lu_2011_chart_1
lu_2020_account_42287,42287,Derivativefinancialinstruments,account.data_account_type_current_assets,FALSE,lu_2011_chart_1
lu_2011_account_42288,42288,Othermiscellaneousreceivables,account.data_account_type_current_assets,FALSE,lu_2011_chart_1
lu_2011_account_42289,42289,Valueadjustments,account.data_account_type_current_assets,FALSE,lu_2011_chart_1
lu_2011_account_431,431,Downpaymentsreceivedwithinoneyear,account.data_account_type_current_liabilities,FALSE,lu_2011_chart_1
lu_2011_account_432,432,Downpaymentsreceivedaftermorethanoneyear,account.data_account_type_current_liabilities,FALSE,lu_2011_chart_1
lu_2011_account_44111,44111,Suppliers,account.data_account_type_payable,TRUE,lu_2011_chart_1
lu_2011_account_44112,44112,Suppliers-invoicesnotyetreceived,account.data_account_type_current_liabilities,TRUE,lu_2011_chart_1
lu_2020_account_44113,44113,Supplierswithadebitbalance,account.data_account_type_current_liabilities,TRUE,lu_2011_chart_1
lu_2011_account_44121,44121,Suppliers,account.data_account_type_current_liabilities,TRUE,lu_2011_chart_1
lu_2020_account_44123,44123,Supplierswithadebitbalance,account.data_account_type_current_liabilities,TRUE,lu_2011_chart_1
lu_2011_account_4421,4421,Billsofexchangepayablewithinoneyear,account.data_account_type_current_liabilities,FALSE,lu_2011_chart_1
lu_2011_account_4422,4422,Billsofexchangepayableaftermorethanoneyear,account.data_account_type_current_liabilities,FALSE,lu_2011_chart_1
lu_2011_account_45111,45111,Purchasesandservices,account.data_account_type_current_liabilities,FALSE,lu_2011_chart_1
lu_2011_account_45112,45112,Loansandadvances,account.data_account_type_current_liabilities,FALSE,lu_2011_chart_1
lu_2011_account_45118,45118,Otherpayables,account.data_account_type_current_liabilities,FALSE,lu_2011_chart_1
lu_2011_account_45121,45121,Purchasesandservices,account.data_account_type_current_liabilities,FALSE,lu_2011_chart_1
lu_2011_account_45122,45122,Loansandadvances,account.data_account_type_current_liabilities,FALSE,lu_2011_chart_1
lu_2011_account_45128,45128,Otherpayables,account.data_account_type_current_liabilities,FALSE,lu_2011_chart_1
lu_2011_account_45211,45211,Purchasesandservices,account.data_account_type_current_liabilities,FALSE,lu_2011_chart_1
lu_2011_account_45212,45212,Loansandadvances,account.data_account_type_current_liabilities,FALSE,lu_2011_chart_1
lu_2011_account_45218,45218,Otherpayables,account.data_account_type_current_liabilities,FALSE,lu_2011_chart_1
lu_2011_account_45221,45221,Purchasesandservices,account.data_account_type_current_liabilities,FALSE,lu_2011_chart_1
lu_2011_account_45222,45222,Loansandadvances,account.data_account_type_current_liabilities,FALSE,lu_2011_chart_1
lu_2011_account_45228,45228,Otherpayables,account.data_account_type_current_liabilities,FALSE,lu_2011_chart_1
lu_2020_account_4611,4611,Municipalauthorities,account.data_account_type_current_liabilities,TRUE,lu_2011_chart_1
lu_2011_account_461211,461211,Corporateincometax-Taxaccrual,account.data_account_type_current_liabilities,FALSE,lu_2011_chart_1
lu_2011_account_461212,461212,CIT-Taxpayable,account.data_account_type_current_liabilities,FALSE,lu_2011_chart_1
lu_2011_account_461221,461221,MBT-Taxaccrual,account.data_account_type_current_liabilities,FALSE,lu_2011_chart_1
lu_2011_account_461222,461222,MBT-Taxpayable,account.data_account_type_current_liabilities,FALSE,lu_2011_chart_1
lu_2011_account_461231,461231,NWT-Taxaccrual,account.data_account_type_current_liabilities,FALSE,lu_2011_chart_1
lu_2011_account_461232,461232,NWT-Taxpayable,account.data_account_type_current_liabilities,FALSE,lu_2011_chart_1
lu_2011_account_46124,46124,Withholdingtaxonwagesandsalaries,account.data_account_type_current_liabilities,FALSE,lu_2011_chart_1
lu_2011_account_46125,46125,Withholdingtaxonfinancialinvestmentincome,account.data_account_type_current_liabilities,FALSE,lu_2011_chart_1
lu_2011_account_46126,46126,Withholdingtaxondirector'sfees,account.data_account_type_current_liabilities,FALSE,lu_2011_chart_1
lu_2011_account_46128,46128,ACD-Otheramountspayable,account.data_account_type_current_liabilities,FALSE,lu_2011_chart_1
lu_2020_account_4613,4613,CustomsandExciseAuthority(ADA),account.data_account_type_current_liabilities,TRUE,lu_2011_chart_1
lu_2020_account_461411,461411,VATreceived,account.data_account_type_current_liabilities,TRUE,lu_2011_chart_1
lu_2011_account_461412,461412,VATpayable,account.data_account_type_current_liabilities,FALSE,lu_2011_chart_1
lu_2011_account_461413,461413,VATdownpaymentsreceived,account.data_account_type_current_liabilities,FALSE,lu_2011_chart_1
lu_2011_account_461418,461418,VAT-Otherpayables,account.data_account_type_current_liabilities,FALSE,lu_2011_chart_1
lu_2011_account_461421,461421,Registrationduties,account.data_account_type_current_liabilities,FALSE,lu_2011_chart_1
lu_2011_account_461422,461422,Subscriptiontax,account.data_account_type_current_liabilities,FALSE,lu_2011_chart_1
lu_2011_account_461428,461428,Otherindirecttaxes,account.data_account_type_current_liabilities,FALSE,lu_2011_chart_1
lu_2020_account_46148,46148,AED-Otherdebts,account.data_account_type_current_liabilities,FALSE,lu_2011_chart_1
lu_2020_account_46151,46151,ForeignVAT,account.data_account_type_current_liabilities,FALSE,lu_2011_chart_1
lu_2020_account_46158,46158,Otherforeigntaxes,account.data_account_type_current_liabilities,FALSE,lu_2011_chart_1
lu_2011_account_4621,4621,SocialSecurityoffice(CCSS),account.data_account_type_current_liabilities,FALSE,lu_2011_chart_1
lu_2011_account_4622,4622,ForeignSocialSecurityoffices,account.data_account_type_current_liabilities,FALSE,lu_2011_chart_1
lu_2011_account_4628,4628,Othersocialbodies,account.data_account_type_current_liabilities,FALSE,lu_2011_chart_1
lu_2020_account_4711,4711,Receiveddepositsandguarantees,account.data_account_type_current_liabilities,TRUE,lu_2011_chart_1
lu_2020_account_4712,4712,Amountspayabletopartnersandshareholders(othersthanfromaffiliatedundertakings),account.data_account_type_current_liabilities,TRUE,lu_2011_chart_1
lu_2011_account_4713,4713,"Amountspayabletodirectors,managers,statutoryauditorsandsimilar",account.data_account_type_current_liabilities,FALSE,lu_2011_chart_1
lu_2020_account_4714,4714,Amountspayabletostaff,account.data_account_type_current_liabilities,TRUE,lu_2011_chart_1
lu_2011_account_4715,4715,State-Greenhousgasandsimilaremissionquotastobereturnedoracquired,account.data_account_type_current_liabilities,FALSE,lu_2011_chart_1
lu_2020_account_47161,47161,Otherloans,account.data_account_type_current_liabilities,TRUE,lu_2011_chart_1
lu_2020_account_47162,47162,Leasedebts,account.data_account_type_current_liabilities,TRUE,lu_2011_chart_1
lu_2020_account_47163,47163,Lifeannuities,account.data_account_type_current_liabilities,TRUE,lu_2011_chart_1
lu_2020_account_47164,47164,Othersimilardebts,account.data_account_type_current_liabilities,TRUE,lu_2011_chart_1
lu_2020_account_4717,4717,Derivativefinancialinstruments,account.data_account_type_current_liabilities,TRUE,lu_2011_chart_1
lu_2011_account_4718,4718,Othermiscellaneousdebts,account.data_account_type_current_liabilities,FALSE,lu_2011_chart_1
lu_2020_account_4721,4721,Receiveddepositsandguarantees,account.data_account_type_current_liabilities,TRUE,lu_2011_chart_1
lu_2020_account_4722,4722,Amountspayabletopartnersandshareholders(othersthanfromaffiliatedundertakings),account.data_account_type_current_liabilities,TRUE,lu_2011_chart_1
lu_2011_account_4723,4723,"Amountspayabletodirectors,managers,statutoryauditorsandsimilar",account.data_account_type_current_liabilities,FALSE,lu_2011_chart_1
lu_2020_account_4724,4724,Amountspayabletostaff,account.data_account_type_current_liabilities,TRUE,lu_2011_chart_1
lu_2020_account_47261,47261,Otherloans,account.data_account_type_current_liabilities,TRUE,lu_2011_chart_1
lu_2020_account_47262,47262,Leasedebts,account.data_account_type_current_liabilities,TRUE,lu_2011_chart_1
lu_2020_account_47263,47263,Lifeannuities,account.data_account_type_current_liabilities,TRUE,lu_2011_chart_1
lu_2020_account_47264,47264,Othersimilardebts,account.data_account_type_current_liabilities,TRUE,lu_2011_chart_1
lu_2020_account_4727,4727,Derivativefinancialinstruments,account.data_account_type_current_liabilities,TRUE,lu_2011_chart_1
lu_2011_account_4728,4728,Othermiscellaneousdebts,account.data_account_type_current_liabilities,FALSE,lu_2011_chart_1
lu_2011_account_481,481,Deferredcharges(ononeormorefinancialyears),account.data_account_type_prepayments,FALSE,lu_2011_chart_1
lu_2011_account_482,482,Deferredincome(ononeormorefinancialyears),account.data_account_type_current_liabilities,FALSE,lu_2011_chart_1
lu_2011_account_483,483,State-Greenhousegasandsimilaremissionquotasreceived,account.data_account_type_current_liabilities,FALSE,lu_2011_chart_1
lu_2011_account_484,484,Transitoryorsuspenseaccounts-Assets,account.data_account_type_current_assets,FALSE,lu_2011_chart_1
lu_2011_account_485,485,Transitoryorsuspenseaccounts-Liabilities,account.data_account_type_current_liabilities,FALSE,lu_2011_chart_1
lu_2011_account_486,486,Linkingaccounts(branches)-Assets,account.data_account_type_current_assets,FALSE,lu_2011_chart_1
lu_2011_account_487,487,Linkingaccounts(branches)-Liabilities,account.data_account_type_current_liabilities,FALSE,lu_2011_chart_1
lu_2011_account_501,501,Sharesinaffiliatedundertakings,account.data_account_type_current_assets,FALSE,lu_2011_chart_1
lu_2011_account_502,502,Ownsharesorowncorporateunits,account.data_account_type_current_assets,FALSE,lu_2011_chart_1
lu_2011_account_503,503,Sharesinundertakingswithwhichtheundertakingislinkedbyvirtueofparticipatinginterests,account.data_account_type_current_assets,FALSE,lu_2011_chart_1
lu_2011_account_5081,5081,Shares-listedsecurities,account.data_account_type_current_assets,FALSE,lu_2011_chart_1
lu_2011_account_5082,5082,Shares-unlistedsecurities,account.data_account_type_current_assets,FALSE,lu_2011_chart_1
lu_2011_account_5083,5083,Debentureloansandothernotesissuedandrepurchasedbythecompany,account.data_account_type_current_assets,FALSE,lu_2011_chart_1
lu_2011_account_5084,5084,Listeddebentureloans,account.data_account_type_current_assets,FALSE,lu_2011_chart_1
lu_2011_account_5085,5085,Unlisteddebentureloans,account.data_account_type_current_assets,FALSE,lu_2011_chart_1
lu_2011_account_5088,5088,Othermiscellaneoustransferablesecurities,account.data_account_type_current_assets,FALSE,lu_2011_chart_1
lu_2020_account_5131,5131,BanksandCCP:availablebalance,account.data_account_type_liquidity,TRUE,lu_2011_chart_1
lu_2020_account_5132,5132,BanksandCCP:overdraft,account.data_account_type_liquidity,TRUE,lu_2011_chart_1
lu_2020_account_516,516,Cashinhand,account.data_account_type_liquidity,TRUE,lu_2011_chart_1
lu_2020_account_5171,5171,Internaltransfers:debitbalance,account.data_account_type_liquidity,TRUE,lu_2011_chart_1
lu_2020_account_5172,5172,Internaltransfers:creditbalance,account.data_account_type_liquidity,TRUE,lu_2011_chart_1
lu_2011_account_518,518,Othercashamounts,account.data_account_type_current_assets,FALSE,lu_2011_chart_1
lu_2020_account_601,601,Purchasesofrawmaterials,account.data_account_type_expenses,FALSE,lu_2011_chart_1
lu_2011_account_60311,60311,Solidfuels,account.data_account_type_expenses,FALSE,lu_2011_chart_1
lu_2011_account_60312,60312,Liquidfuels,account.data_account_type_expenses,FALSE,lu_2011_chart_1
lu_2011_account_60313,60313,Gas,account.data_account_type_expenses,FALSE,lu_2011_chart_1
lu_2020_account_60314,60314,Waterandsewage,account.data_account_type_expenses,FALSE,lu_2011_chart_1
lu_2020_account_60315,60315,Electricity,account.data_account_type_expenses,FALSE,lu_2011_chart_1
lu_2011_account_6032,6032,Maintenancesupplies,account.data_account_type_expenses,FALSE,lu_2011_chart_1
lu_2011_account_6033,6033,"Workshop,factoryandstoresuppliesandsmallequipment",account.data_account_type_expenses,FALSE,lu_2011_chart_1
lu_2011_account_6034,6034,Workclothes,account.data_account_type_expenses,FALSE,lu_2011_chart_1
lu_2011_account_6035,6035,Officeandadministrativesupplies,account.data_account_type_expenses,FALSE,lu_2011_chart_1
lu_2011_account_6036,6036,Motorfuels,account.data_account_type_expenses,FALSE,lu_2011_chart_1
lu_2011_account_6037,6037,Lubricants,account.data_account_type_expenses,FALSE,lu_2011_chart_1
lu_2011_account_6038,6038,Otherconsumablesupplies,account.data_account_type_expenses,FALSE,lu_2011_chart_1
lu_2020_account_604,604,Purchasesofpackaging,account.data_account_type_expenses,FALSE,lu_2011_chart_1
lu_2011_account_6061,6061,Purchasesofmerchandise,account.data_account_type_expenses,FALSE,lu_2011_chart_1
lu_2011_account_6062,6062,Purchasesoflandforresale,account.data_account_type_expenses,FALSE,lu_2011_chart_1
lu_2011_account_6063,6063,Purchasesofbuildingsforresale,account.data_account_type_expenses,FALSE,lu_2011_chart_1
lu_2011_account_6071,6071,Changesininventoryofrawmaterials,account.data_account_type_expenses,FALSE,lu_2011_chart_1
lu_2011_account_6073,6073,Changesininventoryofconsumablematerialsandsupplies,account.data_account_type_expenses,FALSE,lu_2011_chart_1
lu_2011_account_6074,6074,Changesininventoryofpackaging,account.data_account_type_expenses,FALSE,lu_2011_chart_1
lu_2020_account_60761,60761,Merchandise,account.data_account_type_expenses,FALSE,lu_2011_chart_1
lu_2020_account_60762,60762,Landforresale,account.data_account_type_expenses,FALSE,lu_2011_chart_1
lu_2020_account_60763,60763,Buildingsforresale,account.data_account_type_expenses,FALSE,lu_2011_chart_1
lu_2020_account_60811,60811,Tailoring,account.data_account_type_expenses,FALSE,lu_2011_chart_1
lu_2011_account_60812,60812,Researchanddevelopment,account.data_account_type_expenses,FALSE,lu_2011_chart_1
lu_2011_account_60813,60813,Architects'andengineers'fees,account.data_account_type_expenses,FALSE,lu_2011_chart_1
lu_2011_account_60814,60814,Outsourcingincludedintheproductionofgoodsandservices,account.data_account_type_expenses,FALSE,lu_2011_chart_1
lu_2020_account_6082,6082,Otherpurchasesofmaterialincludedintheproductionofgoodsandservices,account.data_account_type_expenses,FALSE,lu_2011_chart_1
lu_2020_account_6083,6083,Purchaseofgreenhousegasandsimilaremissionquotas,account.data_account_type_expenses,FALSE,lu_2011_chart_1
lu_2020_account_6088,6088,Otherpurchasesincludedintheproductionofgoodsandservices,account.data_account_type_expenses,FALSE,lu_2011_chart_1
lu_2011_account_6091,6091,RDRonpurchasesofrawmaterials,account.data_account_type_expenses,FALSE,lu_2011_chart_1
lu_2011_account_6093,6093,RDRonpurchasesofconsumablematerialsandsupplies,account.data_account_type_expenses,FALSE,lu_2011_chart_1
lu_2011_account_6094,6094,RDRonpurchasesofpackaging,account.data_account_type_expenses,FALSE,lu_2011_chart_1
lu_2011_account_6096,6096,RDRonpurchasesofmerchandiseandothergoodsforresale,account.data_account_type_expenses,FALSE,lu_2011_chart_1
lu_2011_account_6098,6098,RDRonpurchasesincludedintheproductionofgoodsandservices,account.data_account_type_expenses,FALSE,lu_2011_chart_1
lu_2011_account_6099,6099,UnallocatedRDR,account.data_account_type_expenses,FALSE,lu_2011_chart_1
lu_2011_account_61111,61111,Land,account.data_account_type_expenses,FALSE,lu_2011_chart_1
lu_2011_account_61112,61112,Buildings,account.data_account_type_expenses,FALSE,lu_2011_chart_1
lu_2011_account_61123,61123,Rollingstock,account.data_account_type_expenses,FALSE,lu_2011_chart_1
lu_2020_account_61128,61128,Other,account.data_account_type_expenses,FALSE,lu_2011_chart_1
lu_2011_account_6113,6113,Servicechargesandco-ownershipexpenses,account.data_account_type_expenses,FALSE,lu_2011_chart_1
lu_2020_account_6114,6114,Financialleasingonrealproperty,account.data_account_type_expenses,FALSE,lu_2011_chart_1
lu_2011_account_61153,61153,Rollingstock,account.data_account_type_expenses,FALSE,lu_2011_chart_1
lu_2020_account_61158,61158,Other,account.data_account_type_expenses,FALSE,lu_2011_chart_1
lu_2011_account_6121,6121,Generalsubcontracting(notincludedintheproductionofgoodsandservices),account.data_account_type_expenses,FALSE,lu_2011_chart_1
lu_2011_account_61221,61221,Buildings,account.data_account_type_expenses,FALSE,lu_2011_chart_1
lu_2011_account_61223,61223,Rollingstock,account.data_account_type_expenses,FALSE,lu_2011_chart_1
lu_2020_account_61228,61228,Other,account.data_account_type_expenses,FALSE,lu_2011_chart_1
lu_2020_account_6131,6131,Commissionsandbrokeragefees,account.data_account_type_expenses,FALSE,lu_2011_chart_1
lu_2011_account_6132,6132,ITservices,account.data_account_type_expenses,FALSE,lu_2011_chart_1
lu_2011_account_61332,61332,Loans'issuanceexpenses,account.data_account_type_expenses,FALSE,lu_2011_chart_1
lu_2011_account_61333,61333,Bankaccountchargesandbankcommissions(includedcustodyfeesonsecurities),account.data_account_type_expenses,FALSE,lu_2011_chart_1
lu_2011_account_61334,61334,Chargesforelectronicmeansofpayment,account.data_account_type_expenses,FALSE,lu_2011_chart_1
lu_2011_account_61336,61336,Factoringservices,account.data_account_type_expenses,FALSE,lu_2011_chart_1
lu_2011_account_61338,61338,Otherbankingandsimilarservices(exceptinterestandsimilarexpenses),account.data_account_type_expenses,FALSE,lu_2011_chart_1
lu_2011_account_61341,61341,"Legal,litigationandsimilarfees",account.data_account_type_expenses,FALSE,lu_2011_chart_1
lu_2011_account_61342,61342,"Accounting,taxconsulting,auditingandsimilarfees",account.data_account_type_expenses,FALSE,lu_2011_chart_1
lu_2011_account_61348,61348,Otherprofessionalfees,account.data_account_type_expenses,FALSE,lu_2011_chart_1
lu_2011_account_6135,6135,Notarialandsimilarfees,account.data_account_type_expenses,FALSE,lu_2011_chart_1
lu_2011_account_6138,6138,Otherremunerationofintermediariesandprofessionalfees,account.data_account_type_expenses,FALSE,lu_2011_chart_1
lu_2011_account_61411,61411,Buildings,account.data_account_type_expenses,FALSE,lu_2011_chart_1
lu_2011_account_61412,61412,Rollingstock,account.data_account_type_expenses,FALSE,lu_2011_chart_1
lu_2011_account_61418,61418,Other,account.data_account_type_expenses,FALSE,lu_2011_chart_1
lu_2011_account_6142,6142,Insuranceonrentedassets,account.data_account_type_expenses,FALSE,lu_2011_chart_1
lu_2020_account_6143,6143,Transportinsurance,account.data_account_type_expenses,FALSE,lu_2011_chart_1
lu_2011_account_6144,6144,Businessriskinsurance,account.data_account_type_expenses,FALSE,lu_2011_chart_1
lu_2011_account_6145,6145,Customerscreditinsurance,account.data_account_type_expenses,FALSE,lu_2011_chart_1
lu_2011_account_6146,6146,Third-partyinsurance,account.data_account_type_expenses,FALSE,lu_2011_chart_1
lu_2011_account_6148,6148,Otherinsurances,account.data_account_type_expenses,FALSE,lu_2011_chart_1
lu_2011_account_61511,61511,Pressadvertising,account.data_account_type_expenses,FALSE,lu_2011_chart_1
lu_2011_account_61512,61512,Samples,account.data_account_type_expenses,FALSE,lu_2011_chart_1
lu_2011_account_61513,61513,Fairsandexhibitions,account.data_account_type_expenses,FALSE,lu_2011_chart_1
lu_2011_account_61514,61514,Giftstocustomers,account.data_account_type_expenses,FALSE,lu_2011_chart_1
lu_2011_account_61515,61515,"Catalogues,printedmaterialsandpublications",account.data_account_type_expenses,FALSE,lu_2011_chart_1
lu_2011_account_61516,61516,Donations,account.data_account_type_expenses,FALSE,lu_2011_chart_1
lu_2011_account_61517,61517,Sponsorship,account.data_account_type_expenses,FALSE,lu_2011_chart_1
lu_2011_account_61518,61518,Otherpurchasesofadvertisingservices,account.data_account_type_expenses,FALSE,lu_2011_chart_1
lu_2011_account_615211,615211,Management(respectivelyownerandpartner),account.data_account_type_expenses,FALSE,lu_2011_chart_1
lu_2011_account_615212,615212,Staff,account.data_account_type_expenses,FALSE,lu_2011_chart_1
lu_2011_account_61522,61522,Relocationexpenses,account.data_account_type_expenses,FALSE,lu_2011_chart_1
lu_2011_account_61523,61523,Businessassignments,account.data_account_type_expenses,FALSE,lu_2011_chart_1
lu_2011_account_61524,61524,Receptionsandentertainmentcosts,account.data_account_type_expenses,FALSE,lu_2011_chart_1
lu_2011_account_61531,61531,Postalcharges,account.data_account_type_expenses,FALSE,lu_2011_chart_1
lu_2011_account_61532,61532,Telecommunicationcosts,account.data_account_type_expenses,FALSE,lu_2011_chart_1
lu_2011_account_6161,6161,Transportationofpurchasedgoods,account.data_account_type_expenses,FALSE,lu_2011_chart_1
lu_2011_account_6162,6162,Transportationofsoldgoods,account.data_account_type_expenses,FALSE,lu_2011_chart_1
lu_2011_account_6165,6165,Collectivestafftransportation,account.data_account_type_expenses,FALSE,lu_2011_chart_1
lu_2011_account_6168,6168,Othertransportation,account.data_account_type_expenses,FALSE,lu_2011_chart_1
lu_2011_account_6171,6171,Temporarystaff,account.data_account_type_expenses,FALSE,lu_2011_chart_1
lu_2011_account_6172,6172,Externalstaffonsecondment,account.data_account_type_expenses,FALSE,lu_2011_chart_1
lu_2020_account_6181,6181,Documentation,account.data_account_type_expenses,FALSE,lu_2011_chart_1
lu_2011_account_6182,6182,"Costsoftraining,symposiums,seminars,conferences",account.data_account_type_expenses,FALSE,lu_2011_chart_1
lu_2011_account_6183,6183,Industrialandnon-industrialwastetreatment,account.data_account_type_expenses,FALSE,lu_2011_chart_1
lu_2020_account_61841,61841,Solidfuels,account.data_account_type_expenses,FALSE,lu_2011_chart_1
lu_2020_account_61842,61842,"Liquidfuels(oil,motorfuel,etc.)",account.data_account_type_expenses,FALSE,lu_2011_chart_1
lu_2020_account_61843,61843,Gas,account.data_account_type_expenses,FALSE,lu_2011_chart_1
lu_2020_account_61844,61844,Waterandwastewater,account.data_account_type_expenses,FALSE,lu_2011_chart_1
lu_2020_account_61845,61845,Electricity,account.data_account_type_expenses,FALSE,lu_2011_chart_1
lu_2020_account_61851,61851,Officesupplies,account.data_account_type_expenses,FALSE,lu_2011_chart_1
lu_2020_account_61852,61852,Smallequipment,account.data_account_type_expenses,FALSE,lu_2011_chart_1
lu_2020_account_61853,61853,Workclothes,account.data_account_type_expenses,FALSE,lu_2011_chart_1
lu_2020_account_61854,61854,Maintenancesupplies,account.data_account_type_expenses,FALSE,lu_2011_chart_1
lu_2020_account_61858,61858,Other,account.data_account_type_expenses,FALSE,lu_2011_chart_1
lu_2011_account_6186,6186,Surveillanceandsecuritycharges,account.data_account_type_expenses,FALSE,lu_2011_chart_1
lu_2011_account_6187,6187,Contributionstoprofessionalassociations,account.data_account_type_expenses,FALSE,lu_2011_chart_1
lu_2011_account_6188,6188,Othermiscellaneousexternalcharges,account.data_account_type_expenses,FALSE,lu_2011_chart_1
lu_2011_account_619,619,"Rebates,discountsandrefundsreceivedonotherexternalcharges",account.data_account_type_expenses,FALSE,lu_2011_chart_1
lu_2011_account_62111,62111,Basewages,account.data_account_type_expenses,FALSE,lu_2011_chart_1
lu_2011_account_621121,621121,Sunday,account.data_account_type_expenses,FALSE,lu_2011_chart_1
lu_2011_account_621122,621122,Publicholidays,account.data_account_type_expenses,FALSE,lu_2011_chart_1
lu_2011_account_621123,621123,Overtime,account.data_account_type_expenses,FALSE,lu_2011_chart_1
lu_2011_account_621128,621128,Othersupplements,account.data_account_type_expenses,FALSE,lu_2011_chart_1
lu_2011_account_62114,62114,"Incentives,bonusesandcommissions",account.data_account_type_expenses,FALSE,lu_2011_chart_1
lu_2011_account_62115,62115,Benefitsinkind,account.data_account_type_expenses,FALSE,lu_2011_chart_1
lu_2011_account_62116,62116,Severancepay,account.data_account_type_expenses,FALSE,lu_2011_chart_1
lu_2011_account_62117,62117,Survivor'spay,account.data_account_type_expenses,FALSE,lu_2011_chart_1
lu_2011_account_6218,6218,Otherbenefits,account.data_account_type_expenses,FALSE,lu_2011_chart_1
lu_2020_account_6219,6219,Refundsonwagespaid,account.data_account_type_expenses,FALSE,lu_2011_chart_1
lu_2011_account_6221,6221,Students,account.data_account_type_expenses,FALSE,lu_2011_chart_1
lu_2011_account_6222,6222,Casualworkers,account.data_account_type_expenses,FALSE,lu_2011_chart_1
lu_2011_account_6228,6228,Other,account.data_account_type_expenses,FALSE,lu_2011_chart_1
lu_2020_account_6231,6231,Socialsecurityonpensions,account.data_account_type_expenses,FALSE,lu_2011_chart_1
lu_2011_account_6232,6232,"Othersocialsecuritycosts(includingillness,accidents,a.s.o.)",account.data_account_type_expenses,FALSE,lu_2011_chart_1
lu_2020_account_62411,62411,Premiumsforexternalpensionsfunds,account.data_account_type_expenses,FALSE,lu_2011_chart_1
lu_2020_account_62412,62412,Changestoprovisionsforcomplementarypensions,account.data_account_type_expenses,FALSE,lu_2011_chart_1
lu_2020_account_62413,62413,Withholdingtaxoncomplementarypensions,account.data_account_type_expenses,FALSE,lu_2011_chart_1
lu_2020_account_62414,62414,Insolvencyinsurancepremiums,account.data_account_type_expenses,FALSE,lu_2011_chart_1
lu_2020_account_62415,62415,Complementarypensionspaidbytheemployer,account.data_account_type_expenses,FALSE,lu_2011_chart_1
lu_2020_account_6248,6248,Otherstaffexpensesnotmentionedabove,account.data_account_type_expenses,FALSE,lu_2011_chart_1
lu_2011_account_6311,6311,AVAonset-upandstart-upcosts,account.data_account_type_expenses,FALSE,lu_2011_chart_1
lu_2011_account_6313,6313,"AVAonexpensesforcapitalincreasesandvariousoperations(mergers,demergers,changesoflegalform)",account.data_account_type_expenses,FALSE,lu_2011_chart_1
lu_2011_account_6314,6314,AVAonloan-issuanceexpenses,account.data_account_type_expenses,FALSE,lu_2011_chart_1
lu_2011_account_6318,6318,AVAonothersimilarexpenses,account.data_account_type_expenses,FALSE,lu_2011_chart_1
lu_2011_account_6321,6321,AVAondevelopmentcosts,account.data_account_type_expenses,FALSE,lu_2011_chart_1
lu_2011_account_6322,6322,"AVAonconcessions,patents,licences,trademarksandsimilarrightsandassets",account.data_account_type_expenses,FALSE,lu_2011_chart_1
lu_2011_account_6323,6323,AVAongoodwillacquiredforconsideration,account.data_account_type_expenses,FALSE,lu_2011_chart_1
lu_2011_account_6324,6324,AVAondownpaymentsandintangiblefixedassetsunderdevelopment,account.data_account_type_expenses,FALSE,lu_2011_chart_1
lu_2011_account_63311,63311,AVAonland,account.data_account_type_expenses,FALSE,lu_2011_chart_1
lu_2011_account_63312,63312,AVAonfixturesandfittings-outofland,account.data_account_type_expenses,FALSE,lu_2011_chart_1
lu_2011_account_63313,63313,AVAonbuildings,account.data_account_type_expenses,FALSE,lu_2011_chart_1
lu_2020_account_63314,63314,AVAonfixturesandfittings-outofbuildings,account.data_account_type_expenses,FALSE,lu_2011_chart_1
lu_2020_account_63315,63315,FVAoninvestmentproperties,account.data_account_type_expenses,FALSE,lu_2011_chart_1
lu_2011_account_6332,6332,AVAonplantandmachinery,account.data_account_type_expenses,FALSE,lu_2011_chart_1
lu_2011_account_6333,6333,"AVAonotherfixturesandfittings,toolsandequipment(includingrollingstock)",account.data_account_type_expenses,FALSE,lu_2011_chart_1
lu_2011_account_6334,6334,AVAondownpaymentsandtangiblefixedassetsunderdevelopment,account.data_account_type_expenses,FALSE,lu_2011_chart_1
lu_2011_account_6341,6341,AVAoninventoriesofrawmaterialsandconsumables,account.data_account_type_expenses,FALSE,lu_2011_chart_1
lu_2011_account_6342,6342,AVAoninventoriesofworkandcontractsinprogress,account.data_account_type_expenses,FALSE,lu_2011_chart_1
lu_2011_account_6343,6343,AVAoninventoriesofgoods,account.data_account_type_expenses,FALSE,lu_2011_chart_1
lu_2011_account_6344,6344,AVAoninventoriesofmerchandiseandothergoodsforresale,account.data_account_type_expenses,FALSE,lu_2011_chart_1
lu_2011_account_6345,6345,AVAondownpaymentsoninventories,account.data_account_type_expenses,FALSE,lu_2011_chart_1
lu_2011_account_6351,6351,AVAontradereceivables,account.data_account_type_expenses,FALSE,lu_2011_chart_1
lu_2011_account_6352,6352,AVAonamountsowedbyaffiliatedundertakingsandundertakingswithwhichtheundertakingislinkedbyvirtueofparticipatinginterests,account.data_account_type_expenses,FALSE,lu_2011_chart_1
lu_2011_account_6353,6353,AVAonotherreceivables,account.data_account_type_expenses,FALSE,lu_2011_chart_1
lu_2020_account_6354,6354,FVAonreceivablesfromcurrentassets,account.data_account_type_expenses,FALSE,lu_2011_chart_1
lu_2011_account_6411,6411,Concessions,account.data_account_type_expenses,FALSE,lu_2011_chart_1
lu_2011_account_6412,6412,Patents,account.data_account_type_expenses,FALSE,lu_2011_chart_1
lu_2011_account_6413,6413,Softwarelicences,account.data_account_type_expenses,FALSE,lu_2011_chart_1
lu_2011_account_6414,6414,Trademarksandfranchise,account.data_account_type_expenses,FALSE,lu_2011_chart_1
lu_2011_account_64151,64151,Copyrightsandreproductionrights,account.data_account_type_expenses,FALSE,lu_2011_chart_1
lu_2011_account_64158,64158,Othersimilarrightsandassets,account.data_account_type_expenses,FALSE,lu_2011_chart_1
lu_2011_account_642,642,"Indemnities,damagesandinterest",account.data_account_type_expenses,FALSE,lu_2011_chart_1
lu_2020_account_6431,6431,Attendancefees,account.data_account_type_expenses,FALSE,lu_2011_chart_1
lu_2020_account_6432,6432,"Director'sfees",account.data_account_type_expenses,FALSE,lu_2011_chart_1
lu_2020_account_6438,6438,Othersimilarremuneration,account.data_account_type_expenses,FALSE,lu_2011_chart_1
lu_2020_account_64411,64411,Bookvalueofyieldedintangiblefixedassets,account.data_account_type_expenses,FALSE,lu_2011_chart_1
lu_2020_account_64412,64412,Disposalproceedsofintangiblefixedassets,account.data_account_type_expenses,FALSE,lu_2011_chart_1
lu_2020_account_64421,64421,Bookvalueofyieldedtangiblefixedassets,account.data_account_type_expenses,FALSE,lu_2011_chart_1
lu_2020_account_64422,64422,Disposalproceedsoftangiblefixedassets,account.data_account_type_expenses,FALSE,lu_2011_chart_1
lu_2011_account_6451,6451,Tradereceivables,account.data_account_type_expenses,FALSE,lu_2011_chart_1
lu_2011_account_6452,6452,Amountsowedbyaffiliatedundertakings,account.data_account_type_expenses,FALSE,lu_2011_chart_1
lu_2011_account_6453,6453,Amountsowedbyundertakingswithwhichtheundertakingislinkedbyvirtueofparticipatinginterests,account.data_account_type_expenses,FALSE,lu_2011_chart_1
lu_2020_account_6454,6454,Otherreceivables,account.data_account_type_expenses,FALSE,lu_2011_chart_1
lu_2011_account_6461,6461,Realpropertytax,account.data_account_type_expenses,FALSE,lu_2011_chart_1
lu_2011_account_6462,6462,Non-refundableVAT,account.data_account_type_expenses,FALSE,lu_2011_chart_1
lu_2020_account_6463,6463,Dutiesonimportedmerchandise,account.data_account_type_expenses,FALSE,lu_2011_chart_1
lu_2011_account_6464,6464,Excisedutiesonproductionandtaxonconsumption,account.data_account_type_expenses,FALSE,lu_2011_chart_1
lu_2011_account_64651,64651,Registrationfees,account.data_account_type_expenses,FALSE,lu_2011_chart_1
lu_2011_account_64658,64658,"Otherregistrationfees,stampdutiesandmortgageduties",account.data_account_type_expenses,FALSE,lu_2011_chart_1
lu_2011_account_6466,6466,Motor-vehicletaxes,account.data_account_type_expenses,FALSE,lu_2011_chart_1
lu_2011_account_6467,6467,Barlicencetax,account.data_account_type_expenses,FALSE,lu_2011_chart_1
lu_2011_account_6468,6468,Otherdutiesandtaxes,account.data_account_type_expenses,FALSE,lu_2011_chart_1
lu_2011_account_647,647,Allocationstotax-exemptcapitalgains,account.data_account_type_expenses,FALSE,lu_2011_chart_1
lu_2020_account_6481,6481,"Fines,sanctionsandpenalties",account.data_account_type_expenses,FALSE,lu_2011_chart_1
lu_2020_account_6488,6488,Miscellaneousoperatingcharges,account.data_account_type_expenses,FALSE,lu_2011_chart_1
lu_2020_account_6491,6491,Allocationstotaxprovisions,account.data_account_type_expenses,FALSE,lu_2011_chart_1
lu_2020_account_6492,6492,Allocationstooperatingprovisions,account.data_account_type_expenses,FALSE,lu_2011_chart_1
lu_2011_account_65111,65111,AVAonsharesinaffiliatedundertakings,account.data_account_type_expenses,FALSE,lu_2011_chart_1
lu_2011_account_65112,65112,AVAonamountsowedbyaffiliatedundertakings,account.data_account_type_expenses,FALSE,lu_2011_chart_1
lu_2011_account_65113,65113,AVAonparticipatinginterests,account.data_account_type_expenses,FALSE,lu_2011_chart_1
lu_2011_account_65114,65114,AVAonamountsowedbyundertakingswithwhichtheundertakingislinkedbyvirtueofparticipatinginterests,account.data_account_type_expenses,FALSE,lu_2011_chart_1
lu_2011_account_65115,65115,AVAonsecuritiesheldasfixedassets,account.data_account_type_expenses,FALSE,lu_2011_chart_1
lu_2011_account_65116,65116,"AVAonloans,depositsandclaimsheldasfixedassets",account.data_account_type_expenses,FALSE,lu_2011_chart_1
lu_2011_account_6512,6512,FVAonfinancialfixedassets,account.data_account_type_expenses,FALSE,lu_2011_chart_1
lu_2020_account_65211,65211,Sharesinaffiliatedundertakings,account.data_account_type_expenses,FALSE,lu_2011_chart_1
lu_2020_account_65212,65212,Amountsowedbyaffiliatedundertakings,account.data_account_type_expenses,FALSE,lu_2011_chart_1
lu_2020_account_65213,65213,Participatinginterests,account.data_account_type_expenses,FALSE,lu_2011_chart_1
lu_2020_account_65214,65214,Amountsowedbyundertakingswithwhichtheundertakingislinkedbyvirtueofparticipatinginterests,account.data_account_type_expenses,FALSE,lu_2011_chart_1
lu_2020_account_65215,65215,Securitiesheldasfixedassets,account.data_account_type_expenses,FALSE,lu_2011_chart_1
lu_2020_account_65216,65216,"Loans,depositsandclaimsheldasfixedassets",account.data_account_type_expenses,FALSE,lu_2011_chart_1
lu_2020_account_652211,652211,Bookvalueofyieldedsharesinaffiliatedundertakings,account.data_account_type_expenses,FALSE,lu_2011_chart_1
lu_2020_account_652212,652212,Disposalproceedsofsharesinaffiliatedundertakings,account.data_account_type_expenses,FALSE,lu_2011_chart_1
lu_2020_account_652221,652221,Bookvalueofyieldedamountsowedbyaffiliatedundertakings,account.data_account_type_expenses,FALSE,lu_2011_chart_1
lu_2020_account_652222,652222,Disposalproceedsofamountsowedbyaffiliatedundertakings,account.data_account_type_expenses,FALSE,lu_2011_chart_1
lu_2020_account_652231,652231,Bookvalueofyieldedparticipatinginterests,account.data_account_type_expenses,FALSE,lu_2011_chart_1
lu_2020_account_652232,652232,Disposalproceedsofparticipatinginterests,account.data_account_type_expenses,FALSE,lu_2011_chart_1
lu_2020_account_652241,652241,Bookvalueofyieldedamountsowedbyundertakingswithwhichtheundertakingislinkedbyvirtueofparticipatinginterests,account.data_account_type_expenses,FALSE,lu_2011_chart_1
lu_2020_account_652242,652242,Disposalproceedsofamountsowedbyundertakingswithwhichtheundertakingislinkedbyvirtueofparticipatinginterests,account.data_account_type_expenses,FALSE,lu_2011_chart_1
lu_2020_account_652251,652251,Bookvalueofyieldedsecuritiesheldasfixedassets,account.data_account_type_expenses,FALSE,lu_2011_chart_1
lu_2020_account_652252,652252,Disposalproceedsofsecuritiesheldasfixedassets,account.data_account_type_expenses,FALSE,lu_2011_chart_1
lu_2020_account_652261,652261,"Bookvalueofyieldedloans,depositsandclaimsheldasfixedassets",account.data_account_type_expenses,FALSE,lu_2011_chart_1
lu_2020_account_652262,652262,"Disposalproceedsofloans,depositsandclaimsheldasfixedassets",account.data_account_type_expenses,FALSE,lu_2011_chart_1
lu_2011_account_65311,65311,AVAonsharesinaffiliatedundertakings,account.data_account_type_expenses,FALSE,lu_2011_chart_1
lu_2011_account_65312,65312,AVAonownsharesorowncorporateunits,account.data_account_type_expenses,FALSE,lu_2011_chart_1
lu_2011_account_65313,65313,AVAonsharesinundertakingswithwhichtheundertakingislinkedbyvirtueofparticipatinginterests,account.data_account_type_expenses,FALSE,lu_2011_chart_1
lu_2011_account_65318,65318,AVAonothertransferablesecurities,account.data_account_type_expenses,FALSE,lu_2011_chart_1
lu_2011_account_6532,6532,FVAontransferablesecurities,account.data_account_type_expenses,FALSE,lu_2011_chart_1
lu_2020_account_65411,65411,Fromaffiliatedundertakings,account.data_account_type_expenses,FALSE,lu_2011_chart_1
lu_2020_account_65412,65412,Fromundertakingswithwhichtheundertakingislinkedbyvirtueofparticipatinginterests,account.data_account_type_expenses,FALSE,lu_2011_chart_1
lu_2020_account_65413,65413,Fromotherreceivablesfromcurrentassets,account.data_account_type_expenses,FALSE,lu_2011_chart_1
lu_2020_account_65421,65421,Sharesinaffiliatedundertakings,account.data_account_type_expenses,FALSE,lu_2011_chart_1
lu_2020_account_65422,65422,Ownsharesorcorporateunits,account.data_account_type_expenses,FALSE,lu_2011_chart_1
lu_2020_account_65423,65423,Sharesinundertakingswithwhichtheundertakingislinkedbyvirtueofparticipatinginterests,account.data_account_type_expenses,FALSE,lu_2011_chart_1
lu_2020_account_65428,65428,Othertransferablesecurities,account.data_account_type_expenses,FALSE,lu_2011_chart_1
lu_2011_account_65511,65511,Interestondebentureloans-affiliatedundertakings,account.data_account_type_expenses,FALSE,lu_2011_chart_1
lu_2011_account_65512,65512,Interestondebentureloans-other,account.data_account_type_expenses,FALSE,lu_2011_chart_1
lu_2011_account_65521,65521,Bankinginterestoncurrentaccounts,account.data_account_type_expenses,FALSE,lu_2011_chart_1
lu_2011_account_65522,65522,Bankinginterestonfinancingoperations,account.data_account_type_expenses,FALSE,lu_2011_chart_1
lu_2020_account_655231,655231,Interestonfinancialleases-affiliatedundertakings,account.data_account_type_expenses,FALSE,lu_2011_chart_1
lu_2020_account_655232,655232,Interestonfinancialleases-other,account.data_account_type_expenses,FALSE,lu_2011_chart_1
lu_2011_account_6553,6553,Interestontradepayables,account.data_account_type_expenses,FALSE,lu_2011_chart_1
lu_2020_account_65541,65541,Interestpayabletoaffiliatedundertakings,account.data_account_type_expenses,FALSE,lu_2011_chart_1
lu_2020_account_65542,65542,Interestpayabletoundertakingswithwhichtheundertakingislinkedbyvirtueofparticipatinginterests,account.data_account_type_expenses,FALSE,lu_2011_chart_1
lu_2020_account_65551,65551,Discountsandchargesonbillsofexchange-affiliatedundertakings,account.data_account_type_expenses,FALSE,lu_2011_chart_1
lu_2020_account_65552,65552,Discountsandchargesonbillsofexchange-other,account.data_account_type_expenses,FALSE,lu_2011_chart_1
lu_2020_account_65561,65561,Granteddiscounts-affiliatedundertakings,account.data_account_type_expenses,FALSE,lu_2011_chart_1
lu_2020_account_65562,65562,Granteddiscounts-other,account.data_account_type_expenses,FALSE,lu_2011_chart_1
lu_2011_account_657,657,Shareinthelossesofundertakingsaccountedforundertheequitymethod,account.data_account_type_expenses,FALSE,lu_2011_chart_1
lu_2020_account_65581,65581,Interestpayableonotherloansanddebts-affiliatedundertakings,account.data_account_type_expenses,FALSE,lu_2011_chart_1
lu_2020_account_65582,65582,Interestpayableonotherloansanddebts-other,account.data_account_type_expenses,FALSE,lu_2011_chart_1
lu_2020_account_6561,6561,Foreigncurrencyexchangelosses-affiliatedundertakings,account.data_account_type_expenses,FALSE,lu_2011_chart_1
lu_2020_account_6562,6562,Foreigncurrencyexchangelosses-other,account.data_account_type_expenses,FALSE,lu_2011_chart_1
lu_2020_account_6581,6581,Otherfinancialcharges-affiliatedundertakings,account.data_account_type_expenses,FALSE,lu_2011_chart_1
lu_2020_account_6582,6582,Otherfinancialcharges-other,account.data_account_type_expenses,FALSE,lu_2011_chart_1
lu_2020_account_6591,6591,Allocationstofinancialprovisions-affiliatedundertakings,account.data_account_type_expenses,FALSE,lu_2011_chart_1
lu_2020_account_6592,6592,Allocationstofinancialprovisions-other,account.data_account_type_expenses,FALSE,lu_2011_chart_1
lu_2011_account_6711,6711,CIT-currentfinancialyear,account.data_account_type_expenses,FALSE,lu_2011_chart_1
lu_2011_account_6712,6712,CIT-previousfinancialyears,account.data_account_type_expenses,FALSE,lu_2011_chart_1
lu_2011_account_6721,6721,MBT-currentfinancialyear,account.data_account_type_expenses,FALSE,lu_2011_chart_1
lu_2011_account_6722,6722,MBT-previousfinancialyears,account.data_account_type_expenses,FALSE,lu_2011_chart_1
lu_2011_account_6731,6731,Withholdingtaxes,account.data_account_type_expenses,FALSE,lu_2011_chart_1
lu_2011_account_67321,67321,Currentfinancialyear,account.data_account_type_expenses,FALSE,lu_2011_chart_1
lu_2011_account_67322,67322,Previousfinancialyears,account.data_account_type_expenses,FALSE,lu_2011_chart_1
lu_2011_account_6733,6733,Taxesleviedonnon-residentundertakings,account.data_account_type_expenses,FALSE,lu_2011_chart_1
lu_2011_account_6738,6738,Otherforeignincometaxes,account.data_account_type_expenses,FALSE,lu_2011_chart_1
lu_2020_account_679,679,Allocationstoprovisionsfordeferredtaxes,account.data_account_type_expenses,FALSE,lu_2011_chart_1
lu_2011_account_6811,6811,NWT-currentfinancialyear,account.data_account_type_expenses,FALSE,lu_2011_chart_1
lu_2011_account_6812,6812,NWT-previousfinancialyears,account.data_account_type_expenses,FALSE,lu_2011_chart_1
lu_2011_account_682,682,Subscriptiontax,account.data_account_type_expenses,FALSE,lu_2011_chart_1
lu_2011_account_683,683,Foreigntaxes,account.data_account_type_expenses,FALSE,lu_2011_chart_1
lu_2011_account_688,688,Othertaxes,account.data_account_type_expenses,FALSE,lu_2011_chart_1
lu_2020_account_7021,7021,Salesoffinishedgoods,account.data_account_type_revenue,FALSE,lu_2011_chart_1
lu_2020_account_7022,7022,Salesofsemi-finishedgoods,account.data_account_type_revenue,FALSE,lu_2011_chart_1
lu_2020_account_7023,7023,Salesofresidualproducts,account.data_account_type_revenue,FALSE,lu_2011_chart_1
lu_2020_account_7029,7029,Salesofworkinprogress,account.data_account_type_revenue,FALSE,lu_2011_chart_1
lu_2020_account_703001,703001,SaleofServices,account.data_account_type_revenue,FALSE,lu_2011_chart_1
lu_2020_account_70311,70311,Concessions,account.data_account_type_revenue,FALSE,lu_2011_chart_1
lu_2020_account_70312,70312,Patents,account.data_account_type_revenue,FALSE,lu_2011_chart_1
lu_2020_account_70313,70313,Softwarelicences,account.data_account_type_revenue,FALSE,lu_2011_chart_1
lu_2020_account_70314,70314,Trademarksandfranchises,account.data_account_type_revenue,FALSE,lu_2011_chart_1
lu_2020_account_703151,703151,Copyrightsandreproductionrights,account.data_account_type_revenue,FALSE,lu_2011_chart_1
lu_2020_account_703158,703158,Othersimilarrightsandassets,account.data_account_type_revenue,FALSE,lu_2011_chart_1
lu_2020_account_70321,70321,Rentalincomefromrealproperty,account.data_account_type_revenue,FALSE,lu_2011_chart_1
lu_2020_account_70322,70322,Rentalincomefrommovableproperty,account.data_account_type_revenue,FALSE,lu_2011_chart_1
lu_2020_account_7033,7033,Salesofservicesnotmentionedabove,account.data_account_type_revenue,FALSE,lu_2011_chart_1
lu_2020_account_7039,7039,Salesofservicesinthecourseofcompletion,account.data_account_type_revenue,FALSE,lu_2011_chart_1
lu_2011_account_704,704,Salesofpackaging,account.data_account_type_revenue,FALSE,lu_2011_chart_1
lu_2020_account_705,705,Commissionsandbrokeragefees,account.data_account_type_revenue,FALSE,lu_2011_chart_1
lu_2020_account_7061,7061,Salesofmerchandise,account.data_account_type_revenue,FALSE,lu_2011_chart_1
lu_2020_account_7062,7062,Salesoflandresale,account.data_account_type_revenue,FALSE,lu_2011_chart_1
lu_2020_account_7063,7063,Salesofbuildingsforresale,account.data_account_type_revenue,FALSE,lu_2011_chart_1
lu_2020_account_708,708,Othercomponentsofturnover,account.data_account_type_revenue,FALSE,lu_2011_chart_1
lu_2011_account_7092,7092,RDRonsalesofgoods,account.data_account_type_revenue,FALSE,lu_2011_chart_1
lu_2011_account_7093,7093,RDRonsalesofservices,account.data_account_type_revenue,FALSE,lu_2011_chart_1
lu_2011_account_7094,7094,RDRonsalesofpackages,account.data_account_type_revenue,FALSE,lu_2011_chart_1
lu_2011_account_7095,7095,RDRoncommissionsandbrokeragefees,account.data_account_type_revenue,FALSE,lu_2011_chart_1
lu_2011_account_7096,7096,RDRonsalesofmerchandiseandothergoodsforresale,account.data_account_type_revenue,FALSE,lu_2011_chart_1
lu_2011_account_7098,7098,RDRonothercomponentsofturnover,account.data_account_type_revenue,FALSE,lu_2011_chart_1
lu_2020_account_7099,7099,"Notallocatedrebates,discountsandrefunds",account.data_account_type_revenue,FALSE,lu_2011_chart_1
lu_2011_account_7111,7111,Changeininventoriesofworkinprogress,account.data_account_type_revenue,FALSE,lu_2011_chart_1
lu_2011_account_7112,7112,Changeininventories:contractsinprogress-goods,account.data_account_type_revenue,FALSE,lu_2011_chart_1
lu_2011_account_7113,7113,Changeininventories:contractsinprogress-services,account.data_account_type_revenue,FALSE,lu_2011_chart_1
lu_2011_account_7114,7114,Changeininventories:buildingsunderconstruction,account.data_account_type_revenue,FALSE,lu_2011_chart_1
lu_2011_account_7121,7121,Changeininventoriesoffinishedgoods,account.data_account_type_revenue,FALSE,lu_2011_chart_1
lu_2011_account_7122,7122,Changeininventoriesofsemi-finishedgoods,account.data_account_type_revenue,FALSE,lu_2011_chart_1
lu_2011_account_7123,7123,Changeininventoriesofresidualgoods,account.data_account_type_revenue,FALSE,lu_2011_chart_1
lu_2011_account_7211,7211,Developmentcosts,account.data_account_type_revenue,FALSE,lu_2011_chart_1
lu_2011_account_72121,72121,Concessions,account.data_account_type_revenue,FALSE,lu_2011_chart_1
lu_2011_account_72122,72122,Patents,account.data_account_type_revenue,FALSE,lu_2011_chart_1
lu_2011_account_72123,72123,Softwarelicences,account.data_account_type_revenue,FALSE,lu_2011_chart_1
lu_2011_account_72124,72124,Trademarksandfranchises,account.data_account_type_revenue,FALSE,lu_2011_chart_1
lu_2011_account_721251,721251,Copyrightsandreproductionrights,account.data_account_type_revenue,FALSE,lu_2011_chart_1
lu_2011_account_721258,721258,Othersimilarrightsandassets,account.data_account_type_revenue,FALSE,lu_2011_chart_1
lu_2011_account_7221,7221,"Land,fittingsandbuildings",account.data_account_type_revenue,FALSE,lu_2011_chart_1
lu_2011_account_7222,7222,Plantandmachinery,account.data_account_type_revenue,FALSE,lu_2011_chart_1
lu_2011_account_7223,7223,"Otherfixturesandfittings,toolsandequipment(includedmotorvehicles)",account.data_account_type_revenue,FALSE,lu_2011_chart_1
lu_2020_account_7321,7321,RVAondevelopmentcosts,account.data_account_type_revenue,FALSE,lu_2011_chart_1
lu_2011_account_7322,7322,"RVAonconcessions,patents,licences,trademarksandsimilarrightsandassets",account.data_account_type_revenue,FALSE,lu_2011_chart_1
lu_2011_account_7324,7324,RVAondownpaymentsandintangiblefixedassetsunderdevelopment,account.data_account_type_revenue,FALSE,lu_2011_chart_1
lu_2011_account_73311,73311,RVAonland,account.data_account_type_revenue,FALSE,lu_2011_chart_1
lu_2011_account_73312,73312,RVAonfixturesandfittings-outofland,account.data_account_type_revenue,FALSE,lu_2011_chart_1
lu_2011_account_73313,73313,RVAonbuildings,account.data_account_type_revenue,FALSE,lu_2011_chart_1
lu_2011_account_73314,73314,RVAonfixturesandfittings-outofbuildings,account.data_account_type_revenue,FALSE,lu_2011_chart_1
lu_2020_account_73315,73315,FVAoninvestmentproperties,account.data_account_type_revenue,FALSE,lu_2011_chart_1
lu_2011_account_7332,7332,RVAonplantandmachinery,account.data_account_type_revenue,FALSE,lu_2011_chart_1
lu_2011_account_7333,7333,"Otherfixturesandfittings,toolsandequipment(includedmotorvehicles)",account.data_account_type_revenue,FALSE,lu_2011_chart_1
lu_2011_account_7334,7334,RVAondownpaymentsandtangiblefixedassetsunderdevelopment,account.data_account_type_revenue,FALSE,lu_2011_chart_1
lu_2011_account_7341,7341,RVAoninventoriesofrawmaterialsandconsumables,account.data_account_type_revenue,FALSE,lu_2011_chart_1
lu_2011_account_7342,7342,RVAoninventoriesofworkandcontractsinprogress,account.data_account_type_revenue,FALSE,lu_2011_chart_1
lu_2011_account_7343,7343,RVAoninventoriesofgoods,account.data_account_type_revenue,FALSE,lu_2011_chart_1
lu_2011_account_7344,7344,RVAoninventoriesofmerchandiseandothergoodsforresale,account.data_account_type_revenue,FALSE,lu_2011_chart_1
lu_2011_account_7345,7345,RVAondownpaymentsoninventories,account.data_account_type_revenue,FALSE,lu_2011_chart_1
lu_2011_account_7351,7351,RVAontradereceivables,account.data_account_type_revenue,FALSE,lu_2011_chart_1
lu_2011_account_7352,7352,RVAonamountsowedbyaffiliatedundertakingsandundertakingswithwhichtheundertakingislinkedbyvirtueofparticipatinginterests,account.data_account_type_revenue,FALSE,lu_2011_chart_1
lu_2011_account_7353,7353,RVAonotherreceivables,account.data_account_type_revenue,FALSE,lu_2011_chart_1
lu_2020_account_7354,7354,FVAonreceivablesfromcurrentassets,account.data_account_type_revenue,FALSE,lu_2011_chart_1
lu_2011_account_7411,7411,Concessions,account.data_account_type_other_income,FALSE,lu_2011_chart_1
lu_2011_account_7412,7412,Patents,account.data_account_type_other_income,FALSE,lu_2011_chart_1
lu_2011_account_7413,7413,Softwarelicences,account.data_account_type_other_income,FALSE,lu_2011_chart_1
lu_2011_account_7414,7414,Trademarksandfranchises,account.data_account_type_other_income,FALSE,lu_2011_chart_1
lu_2011_account_74151,74151,Copyrightsandreproductionrights,account.data_account_type_other_income,FALSE,lu_2011_chart_1
lu_2011_account_74158,74158,Othersimilarrightsandassets,account.data_account_type_other_income,FALSE,lu_2011_chart_1
lu_2020_account_7421,7421,Rentalincomeonrealproperty,account.data_account_type_other_income,FALSE,lu_2011_chart_1
lu_2020_account_7422,7422,Rentalincomeonmovableproperty,account.data_account_type_other_income,FALSE,lu_2011_chart_1
lu_2011_account_743,743,"Attendancefees,director'sfeesandsimilarremunerations",account.data_account_type_other_income,FALSE,lu_2011_chart_1
lu_2020_account_74411,74411,Bookvalueofyieldedintangiblefixedassets,account.data_account_type_other_income,FALSE,lu_2011_chart_1
lu_2020_account_74412,74412,Disposalproceedsofintangiblefixedassets,account.data_account_type_other_income,FALSE,lu_2011_chart_1
lu_2020_account_74421,74421,Bookvalueofyieldedtangiblefixedassets,account.data_account_type_other_income,FALSE,lu_2011_chart_1
lu_2020_account_74422,74422,Disposalproceedsoftangiblefixedassets,account.data_account_type_other_income,FALSE,lu_2011_chart_1
lu_2020_account_7451,7451,Productsubsidies,account.data_account_type_other_income,FALSE,lu_2011_chart_1
lu_2020_account_7452,7452,Interestsubsidies,account.data_account_type_other_income,FALSE,lu_2011_chart_1
lu_2020_account_7453,7453,Compensatoryallowances,account.data_account_type_other_income,FALSE,lu_2011_chart_1
lu_2020_account_7454,7454,Subsidiesinfavourofemploymentdevelopment,account.data_account_type_other_income,FALSE,lu_2011_chart_1
lu_2020_account_7458,7458,Othersubsidiesforoperatingactivities,account.data_account_type_other_income,FALSE,lu_2011_chart_1
lu_2011_account_746,746,Benefitsinkind,account.data_account_type_other_income,FALSE,lu_2011_chart_1
lu_2011_account_7471,7471,Temporarilynottaxablecapitalgainsnotreinvested,account.data_account_type_other_income,FALSE,lu_2011_chart_1
lu_2011_account_7472,7472,Temporarilynottaxablecapitalgainsreinvested,account.data_account_type_other_income,FALSE,lu_2011_chart_1
lu_2011_account_7473,7473,Capitalinvestmentsubsidies,account.data_account_type_other_income,FALSE,lu_2011_chart_1
lu_2020_account_7481,7481,Insuranceindemnities,account.data_account_type_other_income,FALSE,lu_2011_chart_1
lu_2020_account_7488,7488,Miscellaneousoperatingincome,account.data_account_type_other_income,FALSE,lu_2011_chart_1
lu_2020_account_7491,7491,Reversalsofprovisionsfortaxes,account.data_account_type_other_income,FALSE,lu_2011_chart_1
lu_2020_account_7492,7492,Reversalsofoperatingprovisions,account.data_account_type_other_income,FALSE,lu_2011_chart_1
lu_2011_account_75111,75111,Sharesinaffiliatedundertakings,account.data_account_type_revenue,FALSE,lu_2011_chart_1
lu_2011_account_75112,75112,Amountsowedbyaffiliatedundertakings,account.data_account_type_revenue,FALSE,lu_2011_chart_1
lu_2011_account_75113,75113,Participatinginterests,account.data_account_type_revenue,FALSE,lu_2011_chart_1
lu_2011_account_75114,75114,Amountsowedbyundertakingswithwhichthecompanyislinkedbyvirtueofparticipatinginterests,account.data_account_type_revenue,FALSE,lu_2011_chart_1
lu_2011_account_75115,75115,Securitiesheldasfixedassets,account.data_account_type_revenue,FALSE,lu_2011_chart_1
lu_2011_account_75116,75116,"Loans,depositsandclaimsheldasfixedassets",account.data_account_type_revenue,FALSE,lu_2011_chart_1
lu_2011_account_7512,7512,FVAonfinancialfixedassets,account.data_account_type_revenue,FALSE,lu_2011_chart_1
lu_2020_account_75211,75211,Sharesinaffiliatedundertakings,account.data_account_type_revenue,FALSE,lu_2011_chart_1
lu_2020_account_75212,75212,Amountsowedbyaffiliatedundertakings,account.data_account_type_revenue,FALSE,lu_2011_chart_1
lu_2020_account_75213,75213,Participatinginterests,account.data_account_type_revenue,FALSE,lu_2011_chart_1
lu_2020_account_75214,75214,Amountsowedbyundertakingswithwhichtheundertakingislinkedbyvirtueofparticipatinginterests,account.data_account_type_revenue,FALSE,lu_2011_chart_1
lu_2020_account_75215,75215,Securitiesheldasfixedassets,account.data_account_type_revenue,FALSE,lu_2011_chart_1
lu_2020_account_75216,75216,"Loans,depositsandclaimsheldasfixedassets",account.data_account_type_revenue,FALSE,lu_2011_chart_1
lu_2020_account_752211,752211,Bookvalueofyieldedsharesinaffiliatedundertakings,account.data_account_type_revenue,FALSE,lu_2011_chart_1
lu_2020_account_752212,752212,Disposalproceedsofsharesinaffiliatedundertakings,account.data_account_type_revenue,FALSE,lu_2011_chart_1
lu_2020_account_752221,752221,Bookvalueofyieldedamountsowedbyaffiliatedundertakings,account.data_account_type_revenue,FALSE,lu_2011_chart_1
lu_2020_account_752222,752222,Disposalproceedsofamountsowedbyaffiliatedundertakings,account.data_account_type_revenue,FALSE,lu_2011_chart_1
lu_2020_account_752231,752231,Bookvalueofyieldedparticipatinginterests,account.data_account_type_revenue,FALSE,lu_2011_chart_1
lu_2020_account_752232,752232,Disposalproceedsofparticipatinginterests,account.data_account_type_revenue,FALSE,lu_2011_chart_1
lu_2020_account_752241,752241,Bookvalueofyieldedamountsowedbyundertakingswithwhichtheundertakingislinkedbyvirtueofparticipatinginterests,account.data_account_type_revenue,FALSE,lu_2011_chart_1
lu_2020_account_752242,752242,Disposalproceedsofamountsowedbyundertakingswithwhichtheundertakingislinkedbyvirtueofparticipatinginterests,account.data_account_type_revenue,FALSE,lu_2011_chart_1
lu_2020_account_752251,752251,Bookvalueofyieldedsecuritiesheldasfixedassets,account.data_account_type_revenue,FALSE,lu_2011_chart_1
lu_2020_account_752252,752252,Disposalproceedsofsecuritiesheldasfixedassets,account.data_account_type_revenue,FALSE,lu_2011_chart_1
lu_2020_account_752261,752261,"Bookvalueofyieldedloans,depositsandclaimsheldasfixedassets",account.data_account_type_revenue,FALSE,lu_2011_chart_1
lu_2020_account_752262,752262,"Disposalproceedofloans,depositsandclaimsheldasfixedassets",account.data_account_type_revenue,FALSE,lu_2011_chart_1
lu_2020_account_75311,75311,Sharesinaffiliatedundertakings,account.data_account_type_revenue,FALSE,lu_2011_chart_1
lu_2020_account_75312,75312,Ownsharesorcorporateunits,account.data_account_type_revenue,FALSE,lu_2011_chart_1
lu_2020_account_75313,75313,Sharesinundertakingswithwhichtheundertakingislinkedbyvirtueofparticipatinginterests,account.data_account_type_revenue,FALSE,lu_2011_chart_1
lu_2020_account_75318,75318,Othertransferablesecurities,account.data_account_type_revenue,FALSE,lu_2011_chart_1
lu_2011_account_7532,7532,Fairvalueadjustmentsontransferablesecurities,account.data_account_type_revenue,FALSE,lu_2011_chart_1
lu_2011_account_75411,75411,Onaffiliatedundertakings,account.data_account_type_revenue,FALSE,lu_2011_chart_1
lu_2011_account_75412,75412,Onundertakingswithwhichtheundertakingislinkedbyvirtueofparticipatinginterests,account.data_account_type_revenue,FALSE,lu_2011_chart_1
lu_2011_account_75413,75413,Onothercurrentreceivables,account.data_account_type_revenue,FALSE,lu_2011_chart_1
lu_2020_account_75421,75421,Sharesinaffiliatedundertakings,account.data_account_type_revenue,FALSE,lu_2011_chart_1
lu_2020_account_75422,75422,Ownsharesorcorporateunits,account.data_account_type_revenue,FALSE,lu_2011_chart_1
lu_2020_account_75423,75423,Sharesinundertakingswithwhichtheundertakingislinkedbyvirtueofparticipatinginterests,account.data_account_type_revenue,FALSE,lu_2011_chart_1
lu_2020_account_75428,75428,Othertransferablesecurities,account.data_account_type_revenue,FALSE,lu_2011_chart_1
lu_2011_account_75481,75481,Sharesinaffiliatedundertakings,account.data_account_type_revenue,FALSE,lu_2011_chart_1
lu_2011_account_75482,75482,Ownsharesorcorporateunits,account.data_account_type_revenue,FALSE,lu_2011_chart_1
lu_2011_account_75483,75483,Sharesinundertakingswithwhichtheundertakingislinkedbyvirtueofparticipatinginterests,account.data_account_type_revenue,FALSE,lu_2011_chart_1
lu_2011_account_75488,75488,Othertransferablesecurities,account.data_account_type_revenue,FALSE,lu_2011_chart_1
lu_2011_account_75521,75521,Interestonbankaccounts,account.data_account_type_revenue,FALSE,lu_2011_chart_1
lu_2020_account_755231,755231,Fromaffiliatedundertakings,account.data_account_type_revenue,FALSE,lu_2011_chart_1
lu_2020_account_755232,755232,Fromother,account.data_account_type_revenue,FALSE,lu_2011_chart_1
lu_2011_account_7553,7553,Interestontradereceivables,account.data_account_type_revenue,FALSE,lu_2011_chart_1
lu_2020_account_75541,75541,Interestonamountsowedbyaffiliatedundertakings,account.data_account_type_revenue,FALSE,lu_2011_chart_1
lu_2020_account_75542,75542,Interestonamountsowedbyundertakingswithwhichtheundertakingislinkedbyvirtueofparticipatinginterests,account.data_account_type_revenue,FALSE,lu_2011_chart_1
lu_2020_account_75551,75551,Discountsonbillsofexchange-affiliatedundertakings,account.data_account_type_revenue,FALSE,lu_2011_chart_1
lu_2020_account_75552,75552,Discountsonbillsofexchange-other,account.data_account_type_revenue,FALSE,lu_2011_chart_1
lu_2020_account_75561,75561,Discountsreceived-affiliatedundertakings,account.data_account_type_revenue,FALSE,lu_2011_chart_1
lu_2020_account_75562,75562,Discountsreceived-other,account.data_account_type_revenue,FALSE,lu_2011_chart_1
lu_2020_account_75581,75581,Interestonotheramountsreceivable-affiliatedundertakings,account.data_account_type_revenue,FALSE,lu_2011_chart_1
lu_2020_account_75582,75582,Interestonotheramountsreceivable-other,account.data_account_type_revenue,FALSE,lu_2011_chart_1
lu_2020_account_7561,7561,Foreigncurrencyexchangegains-affiliatedundertakings,account.data_account_type_revenue,FALSE,lu_2011_chart_1
lu_2020_account_7562,7562,Foreigncurrencyexchangegains-other,account.data_account_type_revenue,FALSE,lu_2011_chart_1
lu_2011_account_757,757,Shareofprofitfromundertakingsaccountedforundertheequitymethod,account.data_account_type_revenue,FALSE,lu_2011_chart_1
lu_2020_account_7581,7581,Otherfinancialincome-affiliatedundertakings,account.data_account_type_revenue,FALSE,lu_2011_chart_1
lu_2020_account_7582,7582,Otherfinancialincome-other,account.data_account_type_revenue,FALSE,lu_2011_chart_1
lu_2020_account_7591,7591,Reversalsoffinancialprovisions-affiliatedundertakings,account.data_account_type_revenue,FALSE,lu_2011_chart_1
lu_2020_account_7592,7592,Reversalsoffinancialprovisions-other,account.data_account_type_revenue,FALSE,lu_2011_chart_1
lu_2011_account_771,771,Adjustmentsofcorporateincometax(CIT),account.data_account_type_revenue,FALSE,lu_2011_chart_1
lu_2011_account_772,772,Adjustmentsofmunicipalbusinesstax(MBT),account.data_account_type_revenue,FALSE,lu_2011_chart_1
lu_2011_account_773,773,Adjustmentsofforeignincometaxes,account.data_account_type_revenue,FALSE,lu_2011_chart_1
lu_2020_account_779,779,Reversalsofprovisionsfordeferredtaxes,account.data_account_type_revenue,FALSE,lu_2011_chart_1
lu_2011_account_781,781,Adjustmentsofnetwealthtax(NWT),account.data_account_type_revenue,FALSE,lu_2011_chart_1
lu_2011_account_782,782,Adjustmentsofsubscriptiontax,account.data_account_type_revenue,FALSE,lu_2011_chart_1
lu_2011_account_783,783,Adjustmentsofforeigntaxes,account.data_account_type_revenue,FALSE,lu_2011_chart_1
lu_2011_account_788,788,Adjustmentsofothertaxes,account.data_account_type_revenue,FALSE,lu_2011_chart_1
