id,code,name,user_type_id/id,reconcile,chart_template_id/id,tag_ids/id
do_niif_11010301,11010301,DepósitosacortoplazoenRD$,account.data_account_type_liquidity,FALSE,do_chart_template,"account_tag_1,account_tag_11,account_tag_1101,account_tag_110103"
do_niif_11010302,11010302,DepósitosacortoplazoenUSD$,account.data_account_type_liquidity,FALSE,do_chart_template,"account_tag_1,account_tag_11,account_tag_1101,account_tag_110103"
do_niif_11020100,11020100,BonosyAccionesTemporales,account.data_account_type_current_assets,FALSE,do_chart_template,"account_tag_1,account_tag_11,account_tag_1102"
do_niif_11020200,11020200,OperacionesenBolsa,account.data_account_type_current_assets,FALSE,do_chart_template,"account_tag_1,account_tag_11,account_tag_1102"
do_niif_11020300,11020300,OtrosValoresNegociables,account.data_account_type_current_assets,FALSE,do_chart_template,"account_tag_1,account_tag_11,account_tag_1102"
do_niif_11030101,11030101,ChequesDevueltosporCobrar,account.data_account_type_receivable,TRUE,do_chart_template,"account_tag_1,account_tag_11,account_tag_1103,account_tag_110301"
do_niif_11030102,11030102,InteresesporCobrar,account.data_account_type_receivable,TRUE,do_chart_template,"account_tag_1,account_tag_11,account_tag_1103,account_tag_110301"
do_niif_11030201,11030201,CuentasporCobraraClientes,account.data_account_type_receivable,TRUE,do_chart_template,"account_tag_1,account_tag_11,account_tag_1103,account_tag_110302"
do_niif_11030210,11030210,CuentasporCobraraClientes(PoS),account.data_account_type_receivable,TRUE,do_chart_template,"account_tag_1,account_tag_11,account_tag_1103,account_tag_110302"
do_niif_11030202,11030202,CuentasporCobraraFuncionariosyEmpleados,account.data_account_type_receivable,TRUE,do_chart_template,"account_tag_1,account_tag_11,account_tag_1103,account_tag_110302"
do_niif_11030203,11030203,CuentasporCobraraAfiliadas,account.data_account_type_receivable,TRUE,do_chart_template,"account_tag_1,account_tag_11,account_tag_1103,account_tag_110302"
do_niif_11030204,11030204,CuentasporCobraraAccionistas,account.data_account_type_receivable,TRUE,do_chart_template,"account_tag_1,account_tag_11,account_tag_1103,account_tag_110302"
do_niif_11030205,11030205,OtrasCuentasporCobrar,account.data_account_type_receivable,TRUE,do_chart_template,"account_tag_1,account_tag_11,account_tag_1103,account_tag_110302"
do_niif_11040100,11040100,ProvisionesdeIncobrablesaClientes,account.data_account_type_current_assets,FALSE,do_chart_template,"account_tag_1,account_tag_11,account_tag_1104"
do_niif_11040200,11040200,ProvisionesdeIncobrablesaFuncionariosyEmpleados,account.data_account_type_current_assets,FALSE,do_chart_template,"account_tag_1,account_tag_11,account_tag_1104"
do_niif_11040300,11040300,ProvisionesdeIncobrablesaAfiliadas,account.data_account_type_current_assets,FALSE,do_chart_template,"account_tag_1,account_tag_11,account_tag_1104"
do_niif_11040400,11040400,ProvisionesdeIncobrablesaAccionistas,account.data_account_type_current_assets,FALSE,do_chart_template,"account_tag_1,account_tag_11,account_tag_1104"
do_niif_11040500,11040500,ProvisionesdeOtrasCuentasIncobrables,account.data_account_type_current_assets,FALSE,do_chart_template,"account_tag_1,account_tag_11,account_tag_1104"
do_niif_11050100,11050100,InventariodeMercancíasoProductosTerminados,account.data_account_type_current_assets,FALSE,do_chart_template,"account_tag_1,account_tag_11,account_tag_1105"
do_niif_11050200,11050200,InventariodeMateriaPrima,account.data_account_type_current_assets,FALSE,do_chart_template,"account_tag_1,account_tag_11,account_tag_1105"
do_niif_11050300,11050300,InventarioenTránsito,account.data_account_type_current_assets,FALSE,do_chart_template,"account_tag_1,account_tag_11,account_tag_1105"
do_niif_11050400,11050400,InventariodeMaterialesySuministros,account.data_account_type_current_assets,FALSE,do_chart_template,"account_tag_1,account_tag_11,account_tag_1105"
do_niif_11050500,11050500,InventariodeCombustibles,account.data_account_type_current_assets,FALSE,do_chart_template,"account_tag_1,account_tag_11,account_tag_1105"
do_niif_11050600,11050600,BienesEnviadosNoFacturados,account.data_account_type_current_assets,TRUE,do_chart_template,"account_tag_1,account_tag_11,account_tag_1105"
do_niif_11060100,11060100,DeterioroAcum.deInventarioenAlmacen,account.data_account_type_current_assets,FALSE,do_chart_template,"account_tag_1,account_tag_11,account_tag_1106"
do_niif_11060200,11060200,DeterioroAcum.deMaterialesySuministros,account.data_account_type_current_assets,FALSE,do_chart_template,"account_tag_1,account_tag_11,account_tag_1106"
do_niif_11060300,11060300,DeterioroAcum.deCombustibles,account.data_account_type_current_assets,FALSE,do_chart_template,"account_tag_1,account_tag_11,account_tag_1106"
do_niif_11070100,11070100,ObsolescenciadeInventarioenAlmacen,account.data_account_type_current_assets,FALSE,do_chart_template,"account_tag_1,account_tag_11,account_tag_1107"
do_niif_11070200,11070200,ObsolescenciadeMaterialesySuministros,account.data_account_type_current_assets,FALSE,do_chart_template,"account_tag_1,account_tag_11,account_tag_1107"
do_niif_11070300,11070300,ObsolescenciadeCombustibles,account.data_account_type_current_assets,FALSE,do_chart_template,"account_tag_1,account_tag_11,account_tag_1107"
do_niif_11080101,11080101,ITBISPagadoenComprasdeBienesLocales,account.data_account_type_current_assets,FALSE,do_chart_template,"account_tag_1,account_tag_11,account_tag_1108,account_tag_110801"
do_niif_11080102,11080102,ITBISPagadoenComprasdeServiciosDeducibles,account.data_account_type_current_assets,FALSE,do_chart_template,"account_tag_1,account_tag_11,account_tag_1108,account_tag_110801"
do_niif_11080103,11080103,ITBISPagadoenImportaciones,account.data_account_type_current_assets,FALSE,do_chart_template,"account_tag_1,account_tag_11,account_tag_1108,account_tag_110801"
do_niif_11080104,11080104,ITBISenComprasdeBienesoServiciosSujetosaProporcionalidad,account.data_account_type_current_assets,FALSE,do_chart_template,"account_tag_1,account_tag_11,account_tag_1108,account_tag_110801"
do_niif_11080105,11080105,ITBISenImportacionesSujetoaProporcionalidad,account.data_account_type_current_assets,FALSE,do_chart_template,"account_tag_1,account_tag_11,account_tag_1108,account_tag_110801"
do_niif_11080106,11080106,ITBISPagadoenImportacionesSujetoaProporcionalidad,account.data_account_type_current_assets,FALSE,do_chart_template,"account_tag_1,account_tag_11,account_tag_1108,account_tag_110801"
do_niif_11080301,11080301,ITBISRetenidoporVentas(N08-04yN02-05),account.data_account_type_current_assets,FALSE,do_chart_template,"account_tag_1,account_tag_11,account_tag_1108,account_tag_110803"
do_niif_11080302,11080302,ITBISRetenidoporEntidadesdelEstado(5%),account.data_account_type_current_assets,FALSE,do_chart_template,"account_tag_1,account_tag_11,account_tag_1108,account_tag_110803"
do_niif_11080303,11080303,SaldoaFavorAnterior,account.data_account_type_current_assets,FALSE,do_chart_template,"account_tag_1,account_tag_11,account_tag_1108,account_tag_110803"
do_niif_11090100,11090100,AccionesTemporales,account.data_account_type_current_assets,FALSE,do_chart_template,"account_tag_1,account_tag_11,account_tag_1109"
do_niif_11090200,11090200,DepósitosaPlazoTemporales,account.data_account_type_current_assets,FALSE,do_chart_template,"account_tag_1,account_tag_11,account_tag_1109"
do_niif_11090300,11090300,BonosTemporales,account.data_account_type_current_assets,FALSE,do_chart_template,"account_tag_1,account_tag_11,account_tag_1109"
do_niif_11090400,11090400,FianzasyDepósitos,account.data_account_type_current_assets,FALSE,do_chart_template,"account_tag_1,account_tag_11,account_tag_1109"
do_niif_11100100,11100100,AvanceaProveedores,account.data_account_type_prepayments,FALSE,do_chart_template,"account_tag_1,account_tag_11,account_tag_1110"
do_niif_11100200,11100200,AlquilerespagadosporAnticipado,account.data_account_type_prepayments,FALSE,do_chart_template,"account_tag_1,account_tag_11,account_tag_1110"
do_niif_11100300,11100300,AnticiposparaSeguros,account.data_account_type_prepayments,FALSE,do_chart_template,"account_tag_1,account_tag_11,account_tag_1110"
do_niif_11100400,11100400,AnticiposparaISR,account.data_account_type_prepayments,FALSE,do_chart_template,"account_tag_1,account_tag_11,account_tag_1110"
do_niif_11100500,11100500,AnticiposparaGastos,account.data_account_type_prepayments,FALSE,do_chart_template,"account_tag_1,account_tag_11,account_tag_1110"
do_niif_11100600,11100600,Anticipospara1%Activos,account.data_account_type_prepayments,FALSE,do_chart_template,"account_tag_1,account_tag_11,account_tag_1110"
do_niif_12010101,12010101,Terrenos,account.data_account_type_fixed_assets,FALSE,do_chart_template,"account_tag_1,account_tag_12,account_tag_1201,account_tag_120101"
do_niif_12010102,12010102,Edificaciones,account.data_account_type_fixed_assets,FALSE,do_chart_template,"account_tag_1,account_tag_12,account_tag_1201,account_tag_120101"
do_niif_12010103,12010103,MejorasenEdificaciones,account.data_account_type_fixed_assets,FALSE,do_chart_template,"account_tag_1,account_tag_12,account_tag_1201,account_tag_120101"
do_niif_12010104,12010104,MejorasenEdificacionesyLocalesArrendados,account.data_account_type_fixed_assets,FALSE,do_chart_template,"account_tag_1,account_tag_12,account_tag_1201,account_tag_120101"
do_niif_12010201,12010201,EquiposdeTransporteLiviano,account.data_account_type_fixed_assets,FALSE,do_chart_template,"account_tag_1,account_tag_12,account_tag_1201,account_tag_120102"
do_niif_12010202,12010202,MobiliariosyEquiposdeOficina,account.data_account_type_fixed_assets,FALSE,do_chart_template,"account_tag_1,account_tag_12,account_tag_1201,account_tag_120102"
do_niif_12010301,12010301,Maquinarias,account.data_account_type_fixed_assets,FALSE,do_chart_template,"account_tag_1,account_tag_12,account_tag_1201,account_tag_120103"
do_niif_12010302,12010302,Herramientas,account.data_account_type_fixed_assets,FALSE,do_chart_template,"account_tag_1,account_tag_12,account_tag_1201,account_tag_120103"
do_niif_12010303,12010303,Instalaciones,account.data_account_type_fixed_assets,FALSE,do_chart_template,"account_tag_1,account_tag_12,account_tag_1201,account_tag_120103"
do_niif_12010304,12010304,SistemasdeCámaraySeguridad,account.data_account_type_fixed_assets,FALSE,do_chart_template,"account_tag_1,account_tag_12,account_tag_1201,account_tag_120103"
do_niif_12010305,12010305,Misceláneosuotrosactivos,account.data_account_type_fixed_assets,FALSE,do_chart_template,"account_tag_1,account_tag_12,account_tag_1201,account_tag_120103"
do_niif_12020100,12020100,DepreciaciónAcum.deEdificios,account.data_account_type_non_current_assets,FALSE,do_chart_template,"account_tag_1,account_tag_12,account_tag_1202"
do_niif_12020200,12020200,DepreciaciónAcum.deEquiposdeTransporte,account.data_account_type_non_current_assets,FALSE,do_chart_template,"account_tag_1,account_tag_12,account_tag_1202"
do_niif_12020300,12020300,DepreciaciónAcum.deMobiliariosyEquipos,account.data_account_type_non_current_assets,FALSE,do_chart_template,"account_tag_1,account_tag_12,account_tag_1202"
do_niif_12020400,12020400,DepreciaciónAcum.deMaquinarias,account.data_account_type_non_current_assets,FALSE,do_chart_template,"account_tag_1,account_tag_12,account_tag_1202"
do_niif_12020500,12020500,DepreciaciónAcum.deHerramientas,account.data_account_type_non_current_assets,FALSE,do_chart_template,"account_tag_1,account_tag_12,account_tag_1202"
do_niif_12020600,12020600,DepreciaciónAcum.deInstalaciones,account.data_account_type_non_current_assets,FALSE,do_chart_template,"account_tag_1,account_tag_12,account_tag_1202"
do_niif_12040100,12040100,MarcasyPatentes,account.data_account_type_fixed_assets,FALSE,do_chart_template,"account_tag_1,account_tag_12,account_tag_1204"
do_niif_12040200,12040200,LicenciasyProgramasInformáticos,account.data_account_type_fixed_assets,FALSE,do_chart_template,"account_tag_1,account_tag_12,account_tag_1204"
do_niif_12050100,12050100,EdificacionesyLocalesArrendados,account.data_account_type_fixed_assets,FALSE,do_chart_template,"account_tag_1,account_tag_12,account_tag_1205"
do_niif_12050200,12050200,MaquinariasyEquiposArrendados,account.data_account_type_fixed_assets,FALSE,do_chart_template,"account_tag_1,account_tag_12,account_tag_1205"
do_niif_12050300,12050300,InstalacionesArrendadas,account.data_account_type_fixed_assets,FALSE,do_chart_template,"account_tag_1,account_tag_12,account_tag_1205"
do_niif_12060100,12060100,DepreciaciónAcum.EdificacionesyLocalesArrendados,account.data_account_type_non_current_assets,FALSE,do_chart_template,"account_tag_1,account_tag_12,account_tag_1206"
do_niif_12060200,12060200,DepreciaciónAcum.MaquinariasyEquiposArrendados,account.data_account_type_non_current_assets,FALSE,do_chart_template,"account_tag_1,account_tag_12,account_tag_1206"
do_niif_12060300,12060300,DepreciaciónAcum.InstalacionesArrendadas,account.data_account_type_non_current_assets,FALSE,do_chart_template,"account_tag_1,account_tag_12,account_tag_1206"
do_niif_12070100,12070100,DeterioroValorAcum.EdificiosyLocalesArrendados,account.data_account_type_non_current_assets,FALSE,do_chart_template,"account_tag_1,account_tag_12,account_tag_1207"
do_niif_12070200,12070200,DeterioroValorAcum.MaquinariayEquipoArrendado,account.data_account_type_non_current_assets,FALSE,do_chart_template,"account_tag_1,account_tag_12,account_tag_1207"
do_niif_12070300,12070300,DeterioroValorAcum.InstalacionesArrendadas,account.data_account_type_non_current_assets,FALSE,do_chart_template,"account_tag_1,account_tag_12,account_tag_1207"
do_niif_12080100,12080100,Accionesenotrassociedades,account.data_account_type_non_current_assets,FALSE,do_chart_template,"account_tag_1,account_tag_12,account_tag_1208"
do_niif_12090100,12090100,Diferenciastemporalesdeducibles,account.data_account_type_non_current_assets,FALSE,do_chart_template,"account_tag_1,account_tag_12,account_tag_1209"
do_niif_12090200,12090200,GastosOrganizacionalesDiferidos,account.data_account_type_non_current_assets,FALSE,do_chart_template,"account_tag_1,account_tag_12,account_tag_1209"
do_niif_12090300,12090300,ISRDeducible,account.data_account_type_non_current_assets,FALSE,do_chart_template,"account_tag_1,account_tag_12,account_tag_1209"
do_niif_13010100,13010101,CostosdeConstrucciónenProceso,account.data_account_type_non_current_assets,FALSE,do_chart_template,
do_niif_21010100,21010100,PréstamosBancariosporPagar,account.data_account_type_payable,TRUE,do_chart_template,"account_tag_2,account_tag_21,account_tag_2101"
do_niif_21010200,21010200,CuentasporPagaraProveedoresLocales,account.data_account_type_payable,TRUE,do_chart_template,"account_tag_2,account_tag_21,account_tag_2101"
do_niif_21010300,21010300,CuentasporPagaraProveedoresdelExterior,account.data_account_type_payable,TRUE,do_chart_template,"account_tag_2,account_tag_21,account_tag_2101"
do_niif_21010400,21010400,CuentasporPagaraAfiliadas,account.data_account_type_payable,TRUE,do_chart_template,"account_tag_2,account_tag_21,account_tag_2101"
do_niif_21010500,21010500,CuentasporPagaraAccionistas,account.data_account_type_payable,TRUE,do_chart_template,"account_tag_2,account_tag_21,account_tag_2101"
do_niif_21010600,21010600,NóminasporPagar,account.data_account_type_payable,TRUE,do_chart_template,"account_tag_2,account_tag_21,account_tag_2101"
do_niif_21010700,21010700,InteresesporPagar,account.data_account_type_payable,TRUE,do_chart_template,"account_tag_2,account_tag_21,account_tag_2101"
do_niif_21010800,21010800,OtrasCuentasporPagar,account.data_account_type_payable,TRUE,do_chart_template,"account_tag_2,account_tag_21,account_tag_2101"
do_niif_21020100,21020100,DividendosporPagar,account.data_account_type_non_current_liabilities,FALSE,do_chart_template,"account_tag_2,account_tag_21,account_tag_2102"
do_niif_21020200,21020200,ComisionesporPagar,account.data_account_type_non_current_liabilities,FALSE,do_chart_template,"account_tag_2,account_tag_21,account_tag_2102"
do_niif_21020300,21020300,VacacionesporPagar,account.data_account_type_non_current_liabilities,FALSE,do_chart_template,"account_tag_2,account_tag_21,account_tag_2102"
do_niif_21020400,21020400,BonificacionesporPagar,account.data_account_type_non_current_liabilities,FALSE,do_chart_template,"account_tag_2,account_tag_21,account_tag_2102"
do_niif_21020500,21020500,RegalíaPascualporPagar,account.data_account_type_non_current_liabilities,FALSE,do_chart_template,"account_tag_2,account_tag_21,account_tag_2102"
do_niif_21020600,21020600,SeguroMédicoporPagar,account.data_account_type_non_current_liabilities,FALSE,do_chart_template,"account_tag_2,account_tag_21,account_tag_2102"
do_niif_21020700,21020700,SeguroFamiliardeSalud(SFS)porPagar,account.data_account_type_non_current_liabilities,FALSE,do_chart_template,"account_tag_2,account_tag_21,account_tag_2102"
do_niif_21020800,21020800,AporteaFondodePensiones(AFP)porPagar,account.data_account_type_non_current_liabilities,FALSE,do_chart_template,"account_tag_2,account_tag_21,account_tag_2102"
do_niif_21020900,21020900,SegurodeRiesgoLaboral(SRL)porPagar,account.data_account_type_non_current_liabilities,FALSE,do_chart_template,"account_tag_2,account_tag_21,account_tag_2102"
do_niif_21021000,21021000,INFOTEPporPagar,account.data_account_type_payable,TRUE,do_chart_template,"account_tag_2,account_tag_21,account_tag_2102"
do_niif_21021100,21021100,TesoreríadelaSeguridadSocial(TSS)porPagar,account.data_account_type_payable,TRUE,do_chart_template,"account_tag_2,account_tag_21,account_tag_2102"
do_niif_21021200,21021200,BienesRecibidosnoFacturados,account.data_account_type_non_current_liabilities,TRUE,do_chart_template,"account_tag_2,account_tag_21,account_tag_2102"
do_niif_21030101,21030101,ITBISporVentaServicios,account.data_account_type_non_current_liabilities,FALSE,do_chart_template,"account_tag_2,account_tag_21,account_tag_2103,account_tag_210301"
do_niif_21030102,21030102,ITBISporVentaBienes,account.data_account_type_non_current_liabilities,FALSE,do_chart_template,"account_tag_2,account_tag_21,account_tag_2103,account_tag_210301"
do_niif_21030103,21030103,ITBISporVentaServiciosenNombredeTerceros,account.data_account_type_non_current_liabilities,FALSE,do_chart_template,"account_tag_2,account_tag_21,account_tag_2103,account_tag_210301"
do_niif_21030201,21030201,ITBISRetenidoaPersonaJurídica(N02-05),account.data_account_type_non_current_liabilities,FALSE,do_chart_template,"account_tag_2,account_tag_21,account_tag_2103,account_tag_210302"
do_niif_21030202,21030202,ITBISRetenidoaPersonaFísica(R293-11),account.data_account_type_non_current_liabilities,FALSE,do_chart_template,"account_tag_2,account_tag_21,account_tag_2103,account_tag_210302"
do_niif_21030203,21030203,ITBISRetenidoaEntidadesNoLucrativas(N01-11),account.data_account_type_non_current_liabilities,FALSE,do_chart_template,"account_tag_2,account_tag_21,account_tag_2103,account_tag_210302"
do_niif_21030204,21030204,ITBISRetenidoporServiciosProfesionales(N02-05),account.data_account_type_non_current_liabilities,FALSE,do_chart_template,"account_tag_2,account_tag_21,account_tag_2103,account_tag_210302"
do_niif_21030205,21030205,ITBISRetenidoaInformalesdeBienes(N08-10),account.data_account_type_non_current_liabilities,FALSE,do_chart_template,"account_tag_2,account_tag_21,account_tag_2103,account_tag_210302"
do_niif_21030301,21030301,ISRRetenidoporHonorariosProfesionalesdePersonasFísicas,account.data_account_type_non_current_liabilities,FALSE,do_chart_template,"account_tag_2,account_tag_21,account_tag_2103,account_tag_210303"
do_niif_21030302,21030302,ISRRetenidoporAlquileresPagadosaPersonasFísicas,account.data_account_type_non_current_liabilities,FALSE,do_chart_template,"account_tag_2,account_tag_21,account_tag_2103,account_tag_210303"
do_niif_21030303,21030303,ISRRetenidoporDividendosPagados,account.data_account_type_non_current_liabilities,FALSE,do_chart_template,"account_tag_2,account_tag_21,account_tag_2103,account_tag_210303"
do_niif_21030304,21030304,ISRRetenidoporInteresesPagadosalExterior,account.data_account_type_non_current_liabilities,FALSE,do_chart_template,"account_tag_2,account_tag_21,account_tag_2103,account_tag_210303"
do_niif_21030305,21030305,ISRRetenidoporInteresesPagados,account.data_account_type_non_current_liabilities,FALSE,do_chart_template,"account_tag_2,account_tag_21,account_tag_2103,account_tag_210303"
do_niif_21030306,21030306,ISRRetenidoporTransferenciasdeTítulosyPropiedades,account.data_account_type_non_current_liabilities,FALSE,do_chart_template,"account_tag_2,account_tag_21,account_tag_2103,account_tag_210303"
do_niif_21030307,21030307,ISRRetenidoporRemesasalExterior(L253-12),account.data_account_type_non_current_liabilities,FALSE,do_chart_template,"account_tag_2,account_tag_21,account_tag_2103,account_tag_210303"
do_niif_21030308,21030308,OtrasRetenciones(N07-07),account.data_account_type_non_current_liabilities,FALSE,do_chart_template,"account_tag_2,account_tag_21,account_tag_2103,account_tag_210303"
do_niif_21030309,21030309,OtrasRetenciones,account.data_account_type_non_current_liabilities,FALSE,do_chart_template,"account_tag_2,account_tag_21,account_tag_2103,account_tag_210303"
do_niif_21030401,21030401,RetencióndeImpuestoalSalario(ISRdelIR3),account.data_account_type_non_current_liabilities,FALSE,do_chart_template,"account_tag_2,account_tag_21,account_tag_2103,account_tag_210304"
do_niif_21030402,21030402,RetencióndeSeguroFamiliardeSalud(SFS),account.data_account_type_non_current_liabilities,FALSE,do_chart_template,"account_tag_2,account_tag_21,account_tag_2103,account_tag_210304"
do_niif_21030403,21030403,RetencióndeFondodePensiones(AFP),account.data_account_type_non_current_liabilities,FALSE,do_chart_template,"account_tag_2,account_tag_21,account_tag_2103,account_tag_210304"
do_niif_21030404,21030404,RetencióndeINFOTEP(0.5%),account.data_account_type_non_current_liabilities,FALSE,do_chart_template,"account_tag_2,account_tag_21,account_tag_2103,account_tag_210304"
do_niif_21030501,21030501,ISRporPagar,account.data_account_type_non_current_liabilities,FALSE,do_chart_template,"account_tag_2,account_tag_21,account_tag_2103,account_tag_210305"
do_niif_21030502,21030502,AnticiposISRporPagar,account.data_account_type_non_current_liabilities,FALSE,do_chart_template,"account_tag_2,account_tag_21,account_tag_2103,account_tag_210305"
do_niif_21030503,21030503,PropinaLegalporPagar(L16-92),account.data_account_type_non_current_liabilities,FALSE,do_chart_template,"account_tag_2,account_tag_21,account_tag_2103,account_tag_210305"
do_niif_21030504,21030504,OtrosImpuestosporPagar,account.data_account_type_non_current_liabilities,FALSE,do_chart_template,"account_tag_2,account_tag_21,account_tag_2103,account_tag_210305"
do_niif_21040100,21040100,ProvisionesPagoAlquileres,account.data_account_type_non_current_liabilities,FALSE,do_chart_template,"account_tag_2,account_tag_21,account_tag_2104"
do_niif_21040200,21040200,ProvisionesArrendamientoFinanciero,account.data_account_type_non_current_liabilities,FALSE,do_chart_template,"account_tag_2,account_tag_21,account_tag_2104"
do_niif_21040300,21040300,ProvisionesGastosFijos,account.data_account_type_non_current_liabilities,FALSE,do_chart_template,"account_tag_2,account_tag_21,account_tag_2104"
do_niif_21050100,21050100,TarjetadeCréditoEmpresarial,account.data_account_type_non_current_liabilities,FALSE,do_chart_template,"account_tag_2,account_tag_21,account_tag_2105"
do_niif_21050200,21050200,PrimadeTarjetasdeCrédito,account.data_account_type_non_current_liabilities,FALSE,do_chart_template,"account_tag_2,account_tag_21,account_tag_2105"
do_niif_22010100,22010100,PréstamosBancariosLargoPlazo,account.data_account_type_non_current_liabilities,FALSE,do_chart_template,"account_tag_2,account_tag_22,account_tag_2201"
do_niif_22010200,22010200,PréstamosHipotecariosLP,account.data_account_type_non_current_liabilities,FALSE,do_chart_template,"account_tag_2,account_tag_22,account_tag_2201"
do_niif_22012300,22012300,PréstamosAccionistas/Particulares,account.data_account_type_non_current_liabilities,FALSE,do_chart_template,"account_tag_2,account_tag_22,account_tag_2201"
do_niif_22020100,22020100,ProvisionesBeneficiosdeEmpleadosLP,account.data_account_type_non_current_liabilities,FALSE,do_chart_template,"account_tag_2,account_tag_22,account_tag_2202"
do_niif_22020200,22020200,ProvisionesPrestacionesLaborales,account.data_account_type_non_current_liabilities,FALSE,do_chart_template,"account_tag_2,account_tag_22,account_tag_2202"
do_niif_22020300,22020300,ProvisionesIndemnizaciones,account.data_account_type_non_current_liabilities,FALSE,do_chart_template,"account_tag_2,account_tag_22,account_tag_2202"
do_niif_22030100,22030100,AnticiposoGarantíasdeClientes,account.data_account_type_non_current_liabilities,FALSE,do_chart_template,"account_tag_2,account_tag_22,account_tag_2203"
do_niif_22030200,22030200,DepósitosporIdentificar,account.data_account_type_non_current_liabilities,FALSE,do_chart_template,"account_tag_2,account_tag_22,account_tag_2203"
do_niif_22040100,22040100,ProvisionesArrendamientoFinancieroLP,account.data_account_type_non_current_liabilities,FALSE,do_chart_template,"account_tag_2,account_tag_22,account_tag_2204"
do_niif_31010100,31010100,CapitalSocialAutorizado,account.data_account_type_equity,FALSE,do_chart_template,"account_tag_3,account_tag_31,account_tag_3101"
do_niif_31010200,31010200,CapitalSocialenAccionesnoEmitidas,account.data_account_type_equity,FALSE,do_chart_template,"account_tag_3,account_tag_31,account_tag_3101"
do_niif_31010300,31010300,CapitalSocialPagado,account.data_account_type_equity,FALSE,do_chart_template,"account_tag_3,account_tag_31,account_tag_3101"
do_niif_31010400,31010400,CapitalSocialNoPagado,account.data_account_type_equity,FALSE,do_chart_template,"account_tag_3,account_tag_31,account_tag_3101"
do_niif_31010500,31010500,AccionesoParticipacionesenTesorería,account.data_account_type_equity,FALSE,do_chart_template,"account_tag_3,account_tag_31,account_tag_3101"
do_niif_31020100,31020100,SuperávitporRevaluacióndeTerrenos,account.data_account_type_equity,FALSE,do_chart_template,"account_tag_3,account_tag_31,account_tag_3102"
do_niif_31020200,31020200,SuperávitporRevaluacióndeEdificaciones,account.data_account_type_equity,FALSE,do_chart_template,"account_tag_3,account_tag_31,account_tag_3102"
do_niif_31020300,31020300,SuperávitporRevaluacióndeInstalaciones,account.data_account_type_equity,FALSE,do_chart_template,"account_tag_3,account_tag_31,account_tag_3102"
do_niif_31020400,31020400,SuperávitporRevaluacióndeMobiliarioyEquipo,account.data_account_type_equity,FALSE,do_chart_template,"account_tag_3,account_tag_31,account_tag_3102"
do_niif_32010100,32010100,ReservaLegal,account.data_account_type_equity,FALSE,do_chart_template,"account_tag_3,account_tag_32,account_tag_3201"
do_niif_33010100,33010100,UtilidadesdeEjerciciosAnteriores,account.data_account_type_equity,FALSE,do_chart_template,"account_tag_3,account_tag_33,account_tag_3301"
do_niif_33010200,33010200,PérdidasdeEjerciciosAnteriores,account.data_account_type_equity,FALSE,do_chart_template,"account_tag_3,account_tag_33,account_tag_3301"
do_niif_33020100,33020100,UtilidaddelEjercicio,account.data_account_type_equity,FALSE,do_chart_template,"account_tag_3,account_tag_33,account_tag_3302"
do_niif_33020200,33020200,PérdidasdelEjercicio,account.data_account_type_equity,FALSE,do_chart_template,"account_tag_3,account_tag_33,account_tag_3302"
do_niif_33040100,33040100,SuperávitenReserva,account.data_account_type_equity,FALSE,do_chart_template,"account_tag_3,account_tag_33,account_tag_3304"
do_niif_33040200,33040200,DéficitenReserva,account.data_account_type_equity,FALSE,do_chart_template,"account_tag_3,account_tag_33,account_tag_3304"
do_niif_41010100,41010100,VentasdeBienes,account.data_account_type_revenue,FALSE,do_chart_template,"account_tag_4,account_tag_41,account_tag_4101"
do_niif_41010200,41010200,VentasporExportacionesdeBienes,account.data_account_type_revenue,FALSE,do_chart_template,"account_tag_4,account_tag_41,account_tag_4101"
do_niif_41020100,41020100,VentasdeServicios,account.data_account_type_revenue,FALSE,do_chart_template,"account_tag_4,account_tag_41,account_tag_4102"
do_niif_41020200,41020200,VentasporExportacionesdeServicios,account.data_account_type_revenue,FALSE,do_chart_template,"account_tag_4,account_tag_41,account_tag_4102"
do_niif_41030100,41030100,DevolucionesdeBienes,account.data_account_type_revenue,FALSE,do_chart_template,"account_tag_4,account_tag_41,account_tag_4103"
do_niif_41030200,41030200,DevolucionesporServicios,account.data_account_type_revenue,FALSE,do_chart_template,"account_tag_4,account_tag_41,account_tag_4103"
do_niif_41040100,41040100,DescuentosporVentas(porNC),account.data_account_type_revenue,FALSE,do_chart_template,"account_tag_4,account_tag_41,account_tag_4104"
do_niif_42010100,42010100,InteresessobreCertificados,account.data_account_type_revenue,FALSE,do_chart_template,"account_tag_4,account_tag_42,account_tag_4201"
do_niif_42010200,42010200,InteresesporCuentasBancarias,account.data_account_type_revenue,FALSE,do_chart_template,"account_tag_4,account_tag_42,account_tag_4201"
do_niif_42010300,42010300,InteresesporFinanciamientos,account.data_account_type_revenue,FALSE,do_chart_template,"account_tag_4,account_tag_42,account_tag_4201"
do_niif_42020100,42020100,IngresosporVentasdeActivosDepreciables(CATIIyIII),account.data_account_type_revenue,FALSE,do_chart_template,"account_tag_4,account_tag_42,account_tag_4202"
do_niif_42030100,42030100,IngresosporDividendosGanados,account.data_account_type_revenue,FALSE,do_chart_template,"account_tag_4,account_tag_42,account_tag_4203"
do_niif_42040100,42040100,IngresosporDiferenciaCambiaria,account.data_account_type_other_income,FALSE,do_chart_template,"account_tag_4,account_tag_42,account_tag_4204"
do_niif_42040200,42040200,CobrodeCuentasIncobrables,account.data_account_type_other_income,FALSE,do_chart_template,"account_tag_4,account_tag_42,account_tag_4204"
do_niif_42040300,42040300,IngresosporSobranteenCaja,account.data_account_type_other_income,FALSE,do_chart_template,"account_tag_4,account_tag_42,account_tag_4204"
do_niif_51010100,51010100,CostosdeBienes,account.data_account_type_direct_costs,FALSE,do_chart_template,"account_tag_5,account_tag_51,account_tag_5101"
do_niif_51010200,51010200,CostosdeServicios,account.data_account_type_direct_costs,FALSE,do_chart_template,"account_tag_5,account_tag_51,account_tag_5101"
do_niif_51010300,51010300,DiferenciaenPrecio,account.data_account_type_direct_costs,FALSE,do_chart_template,"account_tag_5,account_tag_51,account_tag_5101"
do_niif_51020400,51020400,CostosdeImportación,account.data_account_type_direct_costs,FALSE,do_chart_template,"account_tag_5,account_tag_51,account_tag_5102"
do_niif_51010500,51010500,ITBISllevadoalCosto,account.data_account_type_direct_costs,FALSE,do_chart_template,"account_tag_5,account_tag_51,account_tag_5101"
do_niif_51020100,51020100,CostosdeMateriaPrima,account.data_account_type_direct_costs,FALSE,do_chart_template,"account_tag_5,account_tag_51,account_tag_5102"
do_niif_51020200,51020200,CostosdeManodeObra,account.data_account_type_direct_costs,FALSE,do_chart_template,"account_tag_5,account_tag_51,account_tag_5102"
do_niif_51020300,51020300,CostosIndirectos,account.data_account_type_direct_costs,FALSE,do_chart_template,"account_tag_5,account_tag_51,account_tag_5102"
do_niif_52010100,61010100,SueldosySalarios,account.data_account_type_expenses,FALSE,do_chart_template,"account_tag_6,account_tag_52,account_tag_5201"
do_niif_52010200,61010200,RegalíaPascual,account.data_account_type_expenses,FALSE,do_chart_template,"account_tag_6,account_tag_52,account_tag_5201"
do_niif_52010300,61010300,RetribucionesComplementarias,account.data_account_type_expenses,FALSE,do_chart_template,"account_tag_6,account_tag_52,account_tag_5201"
do_niif_52010400,61010400,BonoVacacional,account.data_account_type_expenses,FALSE,do_chart_template,"account_tag_6,account_tag_52,account_tag_5201"
do_niif_52010500,61010500,BonoporDesempeño,account.data_account_type_expenses,FALSE,do_chart_template,"account_tag_6,account_tag_52,account_tag_5201"
do_niif_52010600,61010600,ComisionesaEmpleados,account.data_account_type_expenses,FALSE,do_chart_template,"account_tag_6,account_tag_52,account_tag_5201"
do_niif_52010700,61010700,Indemnizaciones,account.data_account_type_expenses,FALSE,do_chart_template,"account_tag_6,account_tag_52,account_tag_5201"
do_niif_52010800,61010800,BonificacionesyGratificaciones,account.data_account_type_expenses,FALSE,do_chart_template,"account_tag_6,account_tag_52,account_tag_5201"
do_niif_52010900,61010900,ComidasoDietasalPersonal,account.data_account_type_expenses,FALSE,do_chart_template,"account_tag_6,account_tag_52,account_tag_5201"
do_niif_52011000,61011000,CursosyEntrenamientos,account.data_account_type_expenses,FALSE,do_chart_template,"account_tag_6,account_tag_52,account_tag_5201"
do_niif_52011100,61011100,PrestacionesLaborales(PreavisoyCesantia),account.data_account_type_expenses,FALSE,do_chart_template,"account_tag_6,account_tag_52,account_tag_5201"
do_niif_52011200,61011200,Incentivos,account.data_account_type_expenses,FALSE,do_chart_template,"account_tag_6,account_tag_52,account_tag_5201"
do_niif_52011300,61011300,HorasExtras,account.data_account_type_expenses,FALSE,do_chart_template,"account_tag_6,account_tag_52,account_tag_5201"
do_niif_52011400,61011400,Uniformes,account.data_account_type_expenses,FALSE,do_chart_template,"account_tag_6,account_tag_52,account_tag_5201"
do_niif_52011500,61011500,OtrosGastosdePersonal,account.data_account_type_expenses,FALSE,do_chart_template,"account_tag_6,account_tag_52,account_tag_5201"
do_niif_52010102,61010102,ContribuciónalaAdministradoradeFondosdePensiones(AFP),account.data_account_type_expenses,FALSE,do_chart_template,"account_tag_6,account_tag_52,account_tag_5201,account_tag_520101"
do_niif_52010103,61010103,ContribuciónalSeguroRiesgoLaboral(SRL),account.data_account_type_expenses,FALSE,do_chart_template,"account_tag_6,account_tag_52,account_tag_5201,account_tag_520101"
do_niif_52010104,61010104,ContribuciónalSeguroFamiliardeSalud(SFS),account.data_account_type_expenses,FALSE,do_chart_template,"account_tag_6,account_tag_52,account_tag_5201,account_tag_520101"
do_niif_52010201,61010201,ContribuciónalaAdministradoradeRiesgosdeSalud(ARS),account.data_account_type_expenses,FALSE,do_chart_template,"account_tag_6,account_tag_52,account_tag_5201,account_tag_520102"
do_niif_52010202,61010202,ContribuciónaSegurosdelPersonal,account.data_account_type_expenses,FALSE,do_chart_template,"account_tag_6,account_tag_52,account_tag_5201,account_tag_520102"
do_niif_52010203,61010203,ContribuciónaPlanesComplementariosdeSalud,account.data_account_type_expenses,FALSE,do_chart_template,"account_tag_6,account_tag_52,account_tag_5201,account_tag_520102"
do_niif_52010204,61010204,ContribuciónSegurosdeVida,account.data_account_type_expenses,FALSE,do_chart_template,"account_tag_6,account_tag_52,account_tag_5201,account_tag_520102"
do_niif_52010205,61010205,ContribuciónalINFOTEP,account.data_account_type_expenses,FALSE,do_chart_template,"account_tag_6,account_tag_52,account_tag_5201,account_tag_520102"
do_niif_52020100,61020100,EnergíaEléctrica,account.data_account_type_expenses,FALSE,do_chart_template,"account_tag_6,account_tag_52,account_tag_5202"
do_niif_52020200,61020200,Comunicaciones,account.data_account_type_expenses,FALSE,do_chart_template,"account_tag_6,account_tag_52,account_tag_5202"
do_niif_52020300,61020300,SuministrosdeOficina(Papeleríayútiles),account.data_account_type_expenses,FALSE,do_chart_template,"account_tag_6,account_tag_52,account_tag_5202"
do_niif_52020400,61020400,ÚtilesdeAseoyLimpieza,account.data_account_type_expenses,FALSE,do_chart_template,"account_tag_6,account_tag_52,account_tag_5202"
do_niif_52020500,61020500,AguayBasura,account.data_account_type_expenses,FALSE,do_chart_template,"account_tag_6,account_tag_52,account_tag_5202"
do_niif_52020600,61020600,SegurodeEdificioyLocales,account.data_account_type_expenses,FALSE,do_chart_template,"account_tag_6,account_tag_52,account_tag_5202"
do_niif_52020700,61020700,CombustiblesyLubricantes,account.data_account_type_expenses,FALSE,do_chart_template,"account_tag_6,account_tag_52,account_tag_5202"
do_niif_52020800,61020800,Alquileres/Arrendamientos,account.data_account_type_expenses,FALSE,do_chart_template,"account_tag_6,account_tag_52,account_tag_5202"
do_niif_52020900,61020900,Franquicias,account.data_account_type_expenses,FALSE,do_chart_template,"account_tag_6,account_tag_52,account_tag_5202"
do_niif_52021000,61021000,Eventos,account.data_account_type_expenses,FALSE,do_chart_template,"account_tag_6,account_tag_52,account_tag_5202"
do_niif_52021100,61021100,Seguros,account.data_account_type_expenses,FALSE,do_chart_template,"account_tag_6,account_tag_52,account_tag_5202"
do_niif_52021200,61021200,ServiciosdeMensajería,account.data_account_type_expenses,FALSE,do_chart_template,"account_tag_6,account_tag_52,account_tag_5202"
do_niif_52021300,61021300,FleteyCarga,account.data_account_type_expenses,FALSE,do_chart_template,"account_tag_6,account_tag_52,account_tag_5202"
do_niif_52021400,61021400,CuotasySuscripciones,account.data_account_type_expenses,FALSE,do_chart_template,"account_tag_6,account_tag_52,account_tag_5202"
do_niif_52021500,61021500,AlojamientoenHoteles,account.data_account_type_expenses,FALSE,do_chart_template,"account_tag_6,account_tag_52,account_tag_5202"
do_niif_52030101,61030101,Legales(P.Física),account.data_account_type_expenses,FALSE,do_chart_template,"account_tag_6,account_tag_52,account_tag_5203,account_tag_520301"
do_niif_52030102,61030102,ContabilidadyAuditoría(P.Física),account.data_account_type_expenses,FALSE,do_chart_template,"account_tag_6,account_tag_52,account_tag_5203,account_tag_520301"
do_niif_52030103,61030103,Tecnología(P.Física),account.data_account_type_expenses,FALSE,do_chart_template,"account_tag_6,account_tag_52,account_tag_5203,account_tag_520301"
do_niif_52030104,61030104,MantenimientosdePlanta(P.Física),account.data_account_type_expenses,FALSE,do_chart_template,"account_tag_6,account_tag_52,account_tag_5203,account_tag_520301"
do_niif_52030105,61030105,MantenimientosdeLocal(P.Física),account.data_account_type_expenses,FALSE,do_chart_template,"account_tag_6,account_tag_52,account_tag_5203,account_tag_520301"
do_niif_52030106,61030106,MantenimientosMobiliariosyEquipos(P.Física),account.data_account_type_expenses,FALSE,do_chart_template,"account_tag_6,account_tag_52,account_tag_5203,account_tag_520301"
do_niif_52030107,61030107,Asesorías(P.Física),account.data_account_type_expenses,FALSE,do_chart_template,"account_tag_6,account_tag_52,account_tag_5203,account_tag_520301"
do_niif_52030108,61030108,Fumigaciones(P.Física),account.data_account_type_expenses,FALSE,do_chart_template,"account_tag_6,account_tag_52,account_tag_5203,account_tag_520301"
do_niif_52030109,61030109,CopiasyEscaneos(P.Física),account.data_account_type_expenses,FALSE,do_chart_template,"account_tag_6,account_tag_52,account_tag_5203,account_tag_520301"
do_niif_52030110,61030110,ServiciosdeVigilancia(P.Física),account.data_account_type_expenses,FALSE,do_chart_template,"account_tag_6,account_tag_52,account_tag_5203,account_tag_520301"
do_niif_52030111,61030111,OtrosServiciosProfesionales(P.Física),account.data_account_type_expenses,FALSE,do_chart_template,"account_tag_6,account_tag_52,account_tag_5203,account_tag_520301"
do_niif_52030201,61030201,Legales(P.Jurídica),account.data_account_type_expenses,FALSE,do_chart_template,"account_tag_6,account_tag_52,account_tag_5203,account_tag_520302"
do_niif_52030202,61030202,ContabilidadyAuditoría(P.Jurídica),account.data_account_type_expenses,FALSE,do_chart_template,"account_tag_6,account_tag_52,account_tag_5203,account_tag_520302"
do_niif_52030203,61030203,Tecnología(P.Jurídica),account.data_account_type_expenses,FALSE,do_chart_template,"account_tag_6,account_tag_52,account_tag_5203,account_tag_520302"
do_niif_52030204,61030204,MantenimientodePlanta(P.Jurídica),account.data_account_type_expenses,FALSE,do_chart_template,"account_tag_6,account_tag_52,account_tag_5203,account_tag_520302"
do_niif_52030205,61030205,MantenimientodelLocal(P.Jurídica),account.data_account_type_expenses,FALSE,do_chart_template,"account_tag_6,account_tag_52,account_tag_5203,account_tag_520302"
do_niif_52030206,61030206,MantenimientoMobiliarioyEquipos(P.Jurídica),account.data_account_type_expenses,FALSE,do_chart_template,"account_tag_6,account_tag_52,account_tag_5203,account_tag_520302"
do_niif_52030207,61030207,Asesorías(P.Jurídica),account.data_account_type_expenses,FALSE,do_chart_template,"account_tag_6,account_tag_52,account_tag_5203,account_tag_520302"
do_niif_52030208,61030208,Fumigaciones(P.Jurídica),account.data_account_type_expenses,FALSE,do_chart_template,"account_tag_6,account_tag_52,account_tag_5203,account_tag_520302"
do_niif_52030209,61030209,CopiasyEscaneos(P.Jurídica),account.data_account_type_expenses,FALSE,do_chart_template,"account_tag_6,account_tag_52,account_tag_5203,account_tag_520302"
do_niif_52030210,61030210,ServiciosdeVigilancia(P.Jurídica),account.data_account_type_expenses,FALSE,do_chart_template,"account_tag_6,account_tag_52,account_tag_5203,account_tag_520302"
do_niif_52030211,61030211,OtrosServiciosProfesionales(P.Jurídica),account.data_account_type_expenses,FALSE,do_chart_template,"account_tag_6,account_tag_52,account_tag_5203,account_tag_520302"
do_niif_52030301,61030301,HonorariosporServiciosdelExterior-Relacionadas,account.data_account_type_expenses,FALSE,do_chart_template,"account_tag_6,account_tag_52,account_tag_5203,account_tag_520303"
do_niif_52030302,61030302,HonorariosporServiciosdelExterior-Terceros,account.data_account_type_expenses,FALSE,do_chart_template,"account_tag_6,account_tag_52,account_tag_5203,account_tag_520303"
do_niif_52040100,61040100,GastosporDepreciacióndeEdificios,account.data_account_type_depreciation,FALSE,do_chart_template,"account_tag_6,account_tag_52,account_tag_5204"
do_niif_52040200,61040200,GastosporDepreciacióndeEquipodeTransporte,account.data_account_type_depreciation,FALSE,do_chart_template,"account_tag_6,account_tag_52,account_tag_5204"
do_niif_52040300,61040300,GastosporDepreciacióndeMobiliarioyEquipos,account.data_account_type_depreciation,FALSE,do_chart_template,"account_tag_6,account_tag_52,account_tag_5204"
do_niif_52040400,61040400,GastosporDepreciacióndeMaquinaria,account.data_account_type_depreciation,FALSE,do_chart_template,"account_tag_6,account_tag_52,account_tag_5204"
do_niif_52040500,61040500,GastosporDepreciacióndeHerramientas,account.data_account_type_depreciation,FALSE,do_chart_template,"account_tag_6,account_tag_52,account_tag_5204"
do_niif_52040600,61040600,GastosporDepreciacióndeInstalaciones,account.data_account_type_depreciation,FALSE,do_chart_template,"account_tag_6,account_tag_52,account_tag_5204"
do_niif_52050100,61050100,GastosporReparacióndeEdificios,account.data_account_type_expenses,FALSE,do_chart_template,"account_tag_6,account_tag_52,account_tag_5205"
do_niif_52050200,61050200,GastosporReparacióndeEquipodeTransporte,account.data_account_type_expenses,FALSE,do_chart_template,"account_tag_6,account_tag_52,account_tag_5205"
do_niif_52050300,61050300,GastosporReparacióndeMobiliarioyEquipos,account.data_account_type_expenses,FALSE,do_chart_template,"account_tag_6,account_tag_52,account_tag_5205"
do_niif_52050400,61050400,GastosporReparacióndeMaquinaria,account.data_account_type_expenses,FALSE,do_chart_template,"account_tag_6,account_tag_52,account_tag_5205"
do_niif_52050500,61050500,GastosporReparacióndeHerramientas,account.data_account_type_expenses,FALSE,do_chart_template,"account_tag_6,account_tag_52,account_tag_5205"
do_niif_52050600,61050600,GastosporReparacióndeInstalaciones,account.data_account_type_expenses,FALSE,do_chart_template,"account_tag_6,account_tag_52,account_tag_5205"
do_niif_52060100,61060100,RelacionesPúblicas,account.data_account_type_expenses,FALSE,do_chart_template,"account_tag_6,account_tag_52,account_tag_5206"
do_niif_52060200,61060200,Publicidad,account.data_account_type_expenses,FALSE,do_chart_template,"account_tag_6,account_tag_52,account_tag_5206"
do_niif_52060300,61060300,GastosdeViajesyRepresentación,account.data_account_type_expenses,FALSE,do_chart_template,"account_tag_6,account_tag_52,account_tag_5206"
do_niif_52060400,61060400,Donaciones,account.data_account_type_expenses,FALSE,do_chart_template,"account_tag_6,account_tag_52,account_tag_5206"
do_niif_52060500,61060500,DonacionesaProIndustria(Ley392-07),account.data_account_type_expenses,FALSE,do_chart_template,"account_tag_6,account_tag_52,account_tag_5206"
do_niif_52060600,61060600,Promociones,account.data_account_type_expenses,FALSE,do_chart_template,"account_tag_6,account_tag_52,account_tag_5206"
do_niif_52060700,61060700,GastosenRestaurantes,account.data_account_type_expenses,FALSE,do_chart_template,"account_tag_6,account_tag_52,account_tag_5206"
do_niif_52070100,61070100,GastosporPréstamosFinancieros,account.data_account_type_expenses,FALSE,do_chart_template,"account_tag_6,account_tag_52,account_tag_5207"
do_niif_52070200,61070200,RetenciónporChequesoTransferenciasElectrónicas(0.15%),account.data_account_type_expenses,FALSE,do_chart_template,"account_tag_6,account_tag_52,account_tag_5207"
do_niif_52070300,61070300,InteresesBancarios,account.data_account_type_expenses,FALSE,do_chart_template,"account_tag_6,account_tag_52,account_tag_5207"
do_niif_52070400,61070400,ComisionesBancarias,account.data_account_type_expenses,FALSE,do_chart_template,"account_tag_6,account_tag_52,account_tag_5207"
do_niif_52070500,61070500,ComisionesdeTarjetadeCrédito,account.data_account_type_expenses,FALSE,do_chart_template,"account_tag_6,account_tag_52,account_tag_5207"
do_niif_52070600,61070600,CargosBancarios,account.data_account_type_expenses,FALSE,do_chart_template,"account_tag_6,account_tag_52,account_tag_5207"
do_niif_52070700,61070700,SegurosobrePréstamosBancarios,account.data_account_type_expenses,FALSE,do_chart_template,"account_tag_6,account_tag_52,account_tag_5207"
do_niif_52070800,61070800,PérdidasporDiferenciaCambiaria,account.data_account_type_expenses,FALSE,do_chart_template,"account_tag_6,account_tag_52,account_tag_5207"
do_niif_52070900,61070900,OtroGastosFinancieros,account.data_account_type_expenses,FALSE,do_chart_template,"account_tag_6,account_tag_52,account_tag_5207"
do_niif_52080100,61080100,PérdidasporFaltanteenCaja,account.data_account_type_expenses,FALSE,do_chart_template,"account_tag_6,account_tag_52,account_tag_5208"
do_niif_52080200,61080200,PérdidasporVentasdeActivosFijos,account.data_account_type_expenses,FALSE,do_chart_template,"account_tag_6,account_tag_52,account_tag_5208"
do_niif_52080300,61080300,PérdidasporCuentasIncobrables,account.data_account_type_expenses,FALSE,do_chart_template,"account_tag_6,account_tag_52,account_tag_5208"
do_niif_52080400,61080400,GastosporISR,account.data_account_type_expenses,FALSE,do_chart_template,"account_tag_6,account_tag_52,account_tag_5208"
do_niif_52080500,61080500,ImpuestosalosActivos,account.data_account_type_expenses,FALSE,do_chart_template,"account_tag_6,account_tag_52,account_tag_5208"
do_niif_52080600,61080600,GastosporPenalidades/RecargosdeDGII,account.data_account_type_expenses,FALSE,do_chart_template,"account_tag_6,account_tag_52,account_tag_5208"
do_niif_52080700,61080700,GastosporPenalidades/RecargosdeTSS,account.data_account_type_expenses,FALSE,do_chart_template,"account_tag_6,account_tag_52,account_tag_5208"
do_niif_52080800,61080800,GastossinComprobantes,account.data_account_type_expenses,FALSE,do_chart_template,"account_tag_6,account_tag_52,account_tag_5208"
do_niif_52080900,61080900,GastosNoDeducibles,account.data_account_type_expenses,FALSE,do_chart_template,"account_tag_6,account_tag_52,account_tag_5208"
do_niif_52081000,61081000,GastosporImpuestos,account.data_account_type_expenses,FALSE,do_chart_template,"account_tag_6,account_tag_52,account_tag_5208"
do_niif_61010100,71010100,GananciasoPérdidas,account.data_unaffected_earnings,FALSE,do_chart_template,"account_tag_7,account_tag_61,account_tag_6101"
