ExternalID,Name,ParentCategory/ExternalID
a1,Expenses,product.product_category_all
a2,OtherProducts,product.product_category_all
a3,SellableProducts,product.product_category_all
a4,Tables,a1
a5,Seatingfurniture,a2
