id,name,model_id:id,group_id:id,perm_read,perm_write,perm_create,perm_unlink
access_purchase_requisition_type,purchase.requisition.type,model_purchase_requisition_type,purchase.group_purchase_user,1,0,0,0
access_purchase_requisition_type_manager,purchase.requisition.type,model_purchase_requisition_type,purchase.group_purchase_manager,1,1,1,1
access_purchase_requisition,purchase.requisition,model_purchase_requisition,purchase.group_purchase_user,1,1,1,1
access_purchase_requisition_line_purchase_user,purchase.requisition.line,model_purchase_requisition_line,purchase.group_purchase_user,1,1,1,1
access_purchase_requisition_manager,purchase.requisitionmanager,model_purchase_requisition,purchase.group_purchase_manager,1,0,0,0
access_purchase_requisition_line_manager,purchase.requisition.linemanager,model_purchase_requisition_line,purchase.group_purchase_manager,1,0,0,0
