"id","name","model_id:id","group_id:id","perm_read","perm_write","perm_create","perm_unlink"
"access_latam_identification_type_all","latamidtypeall","model_l10n_latam_identification_type",,1,0,0,0
"access_latam_identification_type_manager","latamidtypemanager","model_l10n_latam_identification_type","base.group_partner_manager",1,1,0,0
