id,name,model_id/id,group_id/id,perm_read,perm_write,perm_create,perm_unlink
access_gift_card_sales,GiftCardProgramSalesman,model_gift_card,point_of_sale.group_pos_manager,1,0,0,0
access_pos_gift_card_manager,GiftCardProgramSaleManager,model_gift_card,point_of_sale.group_pos_manager,1,1,1,1
