"id","name","model_id:id","group_id:id","perm_read","perm_write","perm_create","perm_unlink"
"access_auth_totp_device_access_employee","TOTPDeviceaccessemployees","model_auth_totp_device","base.group_user",1,0,0,0
"access_auth_totp_device_access_portal","TOTPDeviceaccessportal","model_auth_totp_device","base.group_portal",1,0,0,0
