id,name,country_id/id
tax_group_vat_0,VAT0%,base.et
tax_group_vat_15,VAT15%,base.et
tax_group_withh_2,Withholding2%,base.et
tax_group_withh_15,Withholding15%,base.et
tax_group_withh_35,Withholding35%,base.et
