id,name,chart_template_id/id,code,user_type_id/id,reconcile
egy_account_100101,RightofuseAsset(IFRS16),l10n_eg.egypt_chart_template_standard,100101,account.data_account_type_fixed_assets,False
egy_account_100102,AccumulatedDepreciationrightuseasset(IFRS16),l10n_eg.egypt_chart_template_standard,100102,account.data_account_type_fixed_assets,False
egy_account_100103,VATReceivable,l10n_eg.egypt_chart_template_standard,100103,account.data_account_type_non_current_assets,False
egy_account_101004,OutstandingReceipts,l10n_eg.egypt_chart_template_standard,101004,account.data_account_type_current_assets,False
egy_account_101005,MainSafe,l10n_eg.egypt_chart_template_standard,101005,account.data_account_type_current_assets,False
egy_account_101006,MainSafe-ForeignCurrency,l10n_eg.egypt_chart_template_standard,101006,account.data_account_type_current_assets,False
egy_account_101007,Visa&MasterCreditCards,l10n_eg.egypt_chart_template_standard,101007,account.data_account_type_current_assets,False
egy_account_101008,GatewayCreditCards,l10n_eg.egypt_chart_template_standard,101008,account.data_account_type_current_assets,False
egy_account_101009,ManualVisa&MasterCards,l10n_eg.egypt_chart_template_standard,101009,account.data_account_type_current_assets,False
egy_account_101010,PayPalAccount,l10n_eg.egypt_chart_template_standard,101010,account.data_account_type_current_assets,False
egy_account_102011,AccountsReceivable,l10n_eg.egypt_chart_template_standard,102011,account.data_account_type_receivable,True
egy_account_102012,AccountsReceivable(PoS),l10n_eg.egypt_chart_template_standard,102012,account.data_account_type_receivable,True
egy_account_102013,PostDatedChequesReceived,l10n_eg.egypt_chart_template_standard,102013,account.data_account_type_current_assets,False
egy_account_102014,OtherReceivable,l10n_eg.egypt_chart_template_standard,102014,account.data_account_type_current_assets,False
egy_account_102015,OtherDebtors,l10n_eg.egypt_chart_template_standard,102015,account.data_account_type_current_assets,False
egy_account_103016,ShipmentInsurance,l10n_eg.egypt_chart_template_standard,103016,account.data_account_type_current_assets,False
egy_account_103017,ShipmentsDocumentationCharges,l10n_eg.egypt_chart_template_standard,103017,account.data_account_type_current_assets,False
egy_account_103018,ShipmentOtherCharges,l10n_eg.egypt_chart_template_standard,103018,account.data_account_type_current_assets,False
egy_account_103019,HandlingDifferenceinInventory,l10n_eg.egypt_chart_template_standard,103019,account.data_account_type_current_assets,False
egy_account_103020,ItemsDeliveredtoCustomsontempraryBase,l10n_eg.egypt_chart_template_standard,103020,account.data_account_type_current_assets,False
egy_account_104021,PrepaidMedicalInsurance,l10n_eg.egypt_chart_template_standard,104021,account.data_account_type_current_assets,False
egy_account_104022,PrepaidLifeInsurance,l10n_eg.egypt_chart_template_standard,104022,account.data_account_type_current_assets,False
egy_account_104023,PrepaidOfficeRent,l10n_eg.egypt_chart_template_standard,104023,account.data_account_type_current_assets,False
egy_account_104024,PrepaidOtherInsurance,l10n_eg.egypt_chart_template_standard,104024,account.data_account_type_current_assets,False
egy_account_104025,PrepaidLicenseFees,l10n_eg.egypt_chart_template_standard,104025,account.data_account_type_current_assets,False
egy_account_104026,PrepaidMaintenance,l10n_eg.egypt_chart_template_standard,104026,account.data_account_type_current_assets,False
egy_account_104027,PrepaidSiteHostingFees,l10n_eg.egypt_chart_template_standard,104027,account.data_account_type_current_assets,False
egy_account_104028,PrepaidEmployeesHousing,l10n_eg.egypt_chart_template_standard,104028,account.data_account_type_current_assets,False
egy_account_104029,PrepaidSchoolingFees,l10n_eg.egypt_chart_template_standard,104029,account.data_account_type_current_assets,False
egy_account_104030,PrepaidConsultancyFees,l10n_eg.egypt_chart_template_standard,104030,account.data_account_type_current_assets,False
egy_account_104031,PrepaidLegalFees,l10n_eg.egypt_chart_template_standard,104031,account.data_account_type_current_assets,False
egy_account_104033,PrePaidAdvertisementExpenses,l10n_eg.egypt_chart_template_standard,104033,account.data_account_type_current_assets,False
egy_account_104034,PrepaidBankGuarantee,l10n_eg.egypt_chart_template_standard,104034,account.data_account_type_current_assets,False
egy_account_104035,OtherPrepayments,l10n_eg.egypt_chart_template_standard,104035,account.data_account_type_current_assets,False
egy_account_104036,PrepaidFinancechargeforLoans,l10n_eg.egypt_chart_template_standard,104036,account.data_account_type_current_assets,False
egy_account_104037,Deposit-OfficeRent,l10n_eg.egypt_chart_template_standard,104037,account.data_account_type_current_assets,False
egy_account_104038,Deposits-Customs,l10n_eg.egypt_chart_template_standard,104038,account.data_account_type_current_assets,False
egy_account_104040,DepositOthers,l10n_eg.egypt_chart_template_standard,104040,account.data_account_type_current_assets,False
egy_account_104041,VATInput,l10n_eg.egypt_chart_template_standard,104041,account.data_account_type_current_assets,False
egy_account_104042,WHtaxAdvancewithCustomers-Onbehalfofmycompany,l10n_eg.egypt_chart_template_standard,104042,account.data_account_type_current_assets,False
egy_account_105003,OutstandingPayments,l10n_eg.egypt_chart_template_standard,105003,account.data_account_type_current_assets,False
egy_account_106001,LeaseholdImprovement,l10n_eg.egypt_chart_template_standard,106001,account.data_account_type_current_assets,False
egy_account_106002,FurnitureandEquipment,l10n_eg.egypt_chart_template_standard,106002,account.data_account_type_fixed_assets,False
egy_account_106003,ComputerHardware&Software,l10n_eg.egypt_chart_template_standard,106003,account.data_account_type_fixed_assets,False
egy_account_106004,MotorVehicles,l10n_eg.egypt_chart_template_standard,106004,account.data_account_type_fixed_assets,False
egy_account_106006,AmortisationonLeaseholdImprovement,l10n_eg.egypt_chart_template_standard,106006,account.data_account_type_current_assets,False
egy_account_106007,Acc.Deprn.ofFurniture&OfficeEquipment,l10n_eg.egypt_chart_template_standard,106007,account.data_account_type_current_assets,False
egy_account_106008,Acc.Deprn.ComputerHardware&Software,l10n_eg.egypt_chart_template_standard,106008,account.data_account_type_current_assets,False
egy_account_106009,Acc.DepreciationofMotorVehicles,l10n_eg.egypt_chart_template_standard,106009,account.data_account_type_current_assets,False
egy_account_106010,RegistrationofTrademarks,l10n_eg.egypt_chart_template_standard,106010,account.data_account_type_current_assets,False
egy_account_106011,ComputerCardRenewal,l10n_eg.egypt_chart_template_standard,106011,account.data_account_type_current_assets,False
egy_account_201001,BankSuspenseAccount,l10n_eg.egypt_chart_template_standard,201001,account.data_account_type_current_liabilities,False
egy_account_201002,Payables,l10n_eg.egypt_chart_template_standard,201002,account.data_account_type_payable,True
egy_account_201003,CreditNotestoCustomers,l10n_eg.egypt_chart_template_standard,201003,account.data_account_type_current_liabilities,False
egy_account_201004,Accrued-Salaries,l10n_eg.egypt_chart_template_standard,201004,account.data_account_type_current_liabilities,False
egy_account_201005,LeaveTicketsProvision,l10n_eg.egypt_chart_template_standard,201005,account.data_account_type_current_liabilities,False
egy_account_201006,LeaveDaysProvision,l10n_eg.egypt_chart_template_standard,201006,account.data_account_type_current_liabilities,False
egy_account_201007,Accrued-Commissions,l10n_eg.egypt_chart_template_standard,201007,account.data_account_type_current_liabilities,False
egy_account_201008,AccruedSalariesIncrement,l10n_eg.egypt_chart_template_standard,201008,account.data_account_type_current_liabilities,False
egy_account_201009,Accrued-StaffBonus,l10n_eg.egypt_chart_template_standard,201009,account.data_account_type_current_liabilities,False
egy_account_201010,AccruedOtherPersonnelCost,l10n_eg.egypt_chart_template_standard,201010,account.data_account_type_current_liabilities,False
egy_account_201011,Accrued-Utilities,l10n_eg.egypt_chart_template_standard,201011,account.data_account_type_current_liabilities,False
egy_account_201012,Accrued-Telephone,l10n_eg.egypt_chart_template_standard,201012,account.data_account_type_current_liabilities,False
egy_account_201013,Accrued-Sponsorship,l10n_eg.egypt_chart_template_standard,201013,account.data_account_type_current_liabilities,False
egy_account_201014,Accrued-AuditFees,l10n_eg.egypt_chart_template_standard,201014,account.data_account_type_current_liabilities,False
egy_account_201015,Accrued-OfficeRent,l10n_eg.egypt_chart_template_standard,201015,account.data_account_type_current_liabilities,False
egy_account_201016,AccruedOthers,l10n_eg.egypt_chart_template_standard,201016,account.data_account_type_current_liabilities,False
egy_account_201017,VATOutput,l10n_eg.egypt_chart_template_standard,201017,account.data_account_type_current_liabilities,False
egy_account_201018,Deferredincome,l10n_eg.egypt_chart_template_standard,201018,account.data_account_type_current_liabilities,False
egy_account_201020,WHTaxPayable-Onbehalfofsuppliers,l10n_eg.egypt_chart_template_standard,201020,account.data_account_type_current_liabilities,False
egy_account_201021,LegalReserve,l10n_eg.egypt_chart_template_standard,201021,account.data_account_type_current_liabilities,False
egy_account_201022,TaxesProvision,l10n_eg.egypt_chart_template_standard,201022,account.data_account_type_current_liabilities,False
egy_account_201023,CustomerProvision,l10n_eg.egypt_chart_template_standard,201023,account.data_account_type_current_liabilities,False
egy_account_201024,ScheduleTaxcollected&payable,l10n_eg.egypt_chart_template_standard,201024,account.data_account_type_current_liabilities,False
egy_account_201025,StampTaxpayable,l10n_eg.egypt_chart_template_standard,201025,account.data_account_type_current_liabilities,False
egy_account_201026,SocialContribution-Payabletoauthorities,l10n_eg.egypt_chart_template_standard,201026,account.data_account_type_current_liabilities,False
egy_account_201027,IncomeTaxpayabletoAuthority-Deductedfromemployee'ssalaries,l10n_eg.egypt_chart_template_standard,201027,account.data_account_type_current_liabilities,False
egy_account_202001,EndofServiceProvision,l10n_eg.egypt_chart_template_standard,202001,account.data_account_type_non_current_liabilities,False
egy_account_202002,Reservations,l10n_eg.egypt_chart_template_standard,202002,account.data_account_type_non_current_liabilities,False
egy_account_202003,VATPayable,l10n_eg.egypt_chart_template_standard,202003,account.data_account_type_non_current_liabilities,False
egy_account_400001,CostofGoodsSoldinTrading,l10n_eg.egypt_chart_template_standard,400001,account.data_account_type_direct_costs,False
egy_account_400002,CostOfGoodsSoldI/CSales,l10n_eg.egypt_chart_template_standard,400002,account.data_account_type_direct_costs,False
egy_account_400003,BasicSalary,l10n_eg.egypt_chart_template_standard,400003,account.data_account_type_expenses,False
egy_account_400004,HousingAllowance,l10n_eg.egypt_chart_template_standard,400004,account.data_account_type_expenses,False
egy_account_400005,TransportationAllowance,l10n_eg.egypt_chart_template_standard,400005,account.data_account_type_expenses,False
egy_account_400006,LeaveTicket,l10n_eg.egypt_chart_template_standard,400006,account.data_account_type_expenses,False
egy_account_400007,LeaveSalary,l10n_eg.egypt_chart_template_standard,400007,account.data_account_type_expenses,False
egy_account_400008,EndOfServiceIndemnity,l10n_eg.egypt_chart_template_standard,400008,account.data_account_type_expenses,False
egy_account_400009,MedicalInsurance,l10n_eg.egypt_chart_template_standard,400009,account.data_account_type_expenses,False
egy_account_400010,LifeInsurance,l10n_eg.egypt_chart_template_standard,400010,account.data_account_type_expenses,False
egy_account_400011,SalesCommission,l10n_eg.egypt_chart_template_standard,400011,account.data_account_type_expenses,False
egy_account_400012,StaffOtherAllowances,l10n_eg.egypt_chart_template_standard,400012,account.data_account_type_expenses,False
egy_account_400013,Uniform,l10n_eg.egypt_chart_template_standard,400013,account.data_account_type_expenses,False
egy_account_400014,VisaExpenses,l10n_eg.egypt_chart_template_standard,400014,account.data_account_type_expenses,False
egy_account_400015,PersonnelCostOthers,l10n_eg.egypt_chart_template_standard,400015,account.data_account_type_expenses,False
egy_account_400016,OfficeRent,l10n_eg.egypt_chart_template_standard,400016,account.data_account_type_expenses,False
egy_account_400017,WarehouseRent,l10n_eg.egypt_chart_template_standard,400017,account.data_account_type_expenses,False
egy_account_400018,Water&Electricity,l10n_eg.egypt_chart_template_standard,400018,account.data_account_type_expenses,False
egy_account_400019,OtherUtilityCahrges,l10n_eg.egypt_chart_template_standard,400019,account.data_account_type_expenses,False
egy_account_400020,Telephone,l10n_eg.egypt_chart_template_standard,400020,account.data_account_type_expenses,False
egy_account_400021,Courrier,l10n_eg.egypt_chart_template_standard,400021,account.data_account_type_expenses,False
egy_account_400022,WebSiteHostingFees,l10n_eg.egypt_chart_template_standard,400022,account.data_account_type_expenses,False
egy_account_400023,Others-Communication,l10n_eg.egypt_chart_template_standard,400023,account.data_account_type_expenses,False
egy_account_400024,Airtickets,l10n_eg.egypt_chart_template_standard,400024,account.data_account_type_expenses,False
egy_account_400025,Hotel,l10n_eg.egypt_chart_template_standard,400025,account.data_account_type_expenses,False
egy_account_400026,Meals,l10n_eg.egypt_chart_template_standard,400026,account.data_account_type_expenses,False
egy_account_400027,PerDiem,l10n_eg.egypt_chart_template_standard,400027,account.data_account_type_expenses,False
egy_account_400028,Others,l10n_eg.egypt_chart_template_standard,400028,account.data_account_type_expenses,False
egy_account_400029,AuditFees,l10n_eg.egypt_chart_template_standard,400029,account.data_account_type_expenses,False
egy_account_400031,Legalfees,l10n_eg.egypt_chart_template_standard,400031,account.data_account_type_expenses,False
egy_account_400032,TradeLicenseFees,l10n_eg.egypt_chart_template_standard,400032,account.data_account_type_expenses,False
egy_account_400033,Others-ProfessionalFees,l10n_eg.egypt_chart_template_standard,400033,account.data_account_type_expenses,False
egy_account_400034,Other-AdvertisingExpenses,l10n_eg.egypt_chart_template_standard,400034,account.data_account_type_expenses,False
egy_account_400035,WriteOffReceivables&Payables,l10n_eg.egypt_chart_template_standard,400035,account.data_account_type_expenses,False
egy_account_400036,WriteOffInventory,l10n_eg.egypt_chart_template_standard,400036,account.data_account_type_expenses,False
egy_account_400037,AmortisationofPreoperatingExpenses,l10n_eg.egypt_chart_template_standard,400037,account.data_account_type_expenses,False
egy_account_400038,CashShortage,l10n_eg.egypt_chart_template_standard,400038,account.data_account_type_expenses,False
egy_account_400039,Others-Provision&Writeoff,l10n_eg.egypt_chart_template_standard,400039,account.data_account_type_expenses,False
egy_account_400040,Insurance,l10n_eg.egypt_chart_template_standard,400040,account.data_account_type_expenses,False
egy_account_400041,Training,l10n_eg.egypt_chart_template_standard,400041,account.data_account_type_expenses,False
egy_account_400042,Maintenance,l10n_eg.egypt_chart_template_standard,400042,account.data_account_type_expenses,False
egy_account_400043,Security&Guard,l10n_eg.egypt_chart_template_standard,400043,account.data_account_type_expenses,False
egy_account_400044,Cleaning,l10n_eg.egypt_chart_template_standard,400044,account.data_account_type_expenses,False
egy_account_400045,Subscriptions,l10n_eg.egypt_chart_template_standard,400045,account.data_account_type_expenses,False
egy_account_400046,Gifts&Donations,l10n_eg.egypt_chart_template_standard,400046,account.data_account_type_expenses,False
egy_account_400047,KitchenandBuffetExpenses,l10n_eg.egypt_chart_template_standard,400047,account.data_account_type_expenses,False
egy_account_400048,VehicleExpenses,l10n_eg.egypt_chart_template_standard,400048,account.data_account_type_expenses,False
egy_account_400049,ConvoyanceExpenses,l10n_eg.egypt_chart_template_standard,400049,account.data_account_type_expenses,False
egy_account_400050,Others-OfficeVariousExpenses,l10n_eg.egypt_chart_template_standard,400050,account.data_account_type_expenses,False
egy_account_400051,OtherBankCharges,l10n_eg.egypt_chart_template_standard,400051,account.data_account_type_expenses,False
egy_account_400052,LossOnFixedAssetsDisposal,l10n_eg.egypt_chart_template_standard,400052,account.data_account_type_expenses,False
egy_account_400053,LossonDifferenceonExchange,l10n_eg.egypt_chart_template_standard,400053,account.data_account_type_expenses,False
egy_account_400054,DisposalofBusinessBranch,l10n_eg.egypt_chart_template_standard,400054,account.data_account_type_expenses,False
egy_account_400055,IncomeTax,l10n_eg.egypt_chart_template_standard,400055,account.data_account_type_expenses,False
egy_account_400056,PreviousYearAdjustmentsAccount,l10n_eg.egypt_chart_template_standard,400056,account.data_account_type_expenses,False
egy_account_400057,OtherNonOperatingExpenses,l10n_eg.egypt_chart_template_standard,400057,account.data_account_type_expenses,False
egy_account_400058,CreditCardCharges,l10n_eg.egypt_chart_template_standard,400058,account.data_account_type_expenses,False
egy_account_400059,BankFinance&LoanCharges,l10n_eg.egypt_chart_template_standard,400059,account.data_account_type_expenses,False
egy_account_400060,AirMilesCardCharges,l10n_eg.egypt_chart_template_standard,400060,account.data_account_type_expenses,False
egy_account_400061,CreditCardSwipeCharges,l10n_eg.egypt_chart_template_standard,400061,account.data_account_type_expenses,False
egy_account_400062,PayPalCharges,l10n_eg.egypt_chart_template_standard,400062,account.data_account_type_expenses,False
egy_account_400063,AmortizationonLeaseholdImprovement,l10n_eg.egypt_chart_template_standard,400063,account.data_account_type_expenses,False
egy_account_400064,DepreciationOfFurniture&OfficeEquipment,l10n_eg.egypt_chart_template_standard,400064,account.data_account_type_expenses,False
egy_account_400065,DepreciationOfComputerHard&Soft,l10n_eg.egypt_chart_template_standard,400065,account.data_account_type_expenses,False
egy_account_400066,DepreciationOfMotorVehicles,l10n_eg.egypt_chart_template_standard,400066,account.data_account_type_expenses,False
egy_account_400067,ConsultancyFees,l10n_eg.egypt_chart_template_standard,400067,account.data_account_type_expenses,False
egy_account_400068,ProvisionforDoubtfulDebts,l10n_eg.egypt_chart_template_standard,400068,account.data_account_type_expenses,False
egy_account_400069,ClosingAccount,l10n_eg.egypt_chart_template_standard,400069,account.data_account_type_expenses,False
egy_account_400070,Depreciationonrightofuseasset(IFRS16),l10n_eg.egypt_chart_template_standard,400070,account.data_account_type_expenses,False
egy_account_400072,InterestExpense,l10n_eg.egypt_chart_template_standard,400072,account.data_account_type_expenses,False
egy_account_400074,BadDebts,l10n_eg.egypt_chart_template_standard,400074,account.data_account_type_expenses,False
egy_account_400075,ScheduleTaxExpense,l10n_eg.egypt_chart_template_standard,400075,account.data_account_type_expenses,False
egy_account_400076,WHTaxExpense,l10n_eg.egypt_chart_template_standard,400076,account.data_account_type_expenses,False
egy_account_400077,Stamptaxexpense,l10n_eg.egypt_chart_template_standard,400077,account.data_account_type_expenses,False
egy_account_400078,SocialContibution-Companyportionexpense,l10n_eg.egypt_chart_template_standard,400078,account.data_account_type_expenses,False
egy_account_500001,SalesAccount,l10n_eg.egypt_chart_template_standard,500001,account.data_account_type_revenue,False
egy_account_500002,SalesofI/C,l10n_eg.egypt_chart_template_standard,500002,account.data_account_type_revenue,False
egy_account_500003,ManagementConsultancyFees,l10n_eg.egypt_chart_template_standard,500003,account.data_account_type_revenue,False
egy_account_500004,SalesfromOtherRegion,l10n_eg.egypt_chart_template_standard,500004,account.data_account_type_revenue,False
egy_account_500005,AdvertisingIncome,l10n_eg.egypt_chart_template_standard,500005,account.data_account_type_revenue,False
egy_account_500006,BrandingIncome,l10n_eg.egypt_chart_template_standard,500006,account.data_account_type_revenue,False
egy_account_500007,SpaceRentalIncome,l10n_eg.egypt_chart_template_standard,500007,account.data_account_type_revenue,False
egy_account_500008,ServiceIncome,l10n_eg.egypt_chart_template_standard,500008,account.data_account_type_revenue,False
egy_account_500009,InterestRevenue,l10n_eg.egypt_chart_template_standard,500009,account.data_account_type_revenue,False
egy_account_500010,CapitalGain,l10n_eg.egypt_chart_template_standard,500010,account.data_account_type_revenue,False
egy_account_500011,GainOnDifferenceOfExchange,l10n_eg.egypt_chart_template_standard,500011,account.data_account_type_revenue,False
egy_account_500013,OtherIncome,l10n_eg.egypt_chart_template_standard,500013,account.data_account_type_revenue,False
egy_account_999001,CashDifferenceLoss,l10n_eg.egypt_chart_template_standard,999001,account.data_account_type_expenses,False
egy_account_999002,CashDifferenceGain,l10n_eg.egypt_chart_template_standard,999002,account.data_account_type_revenue,False
egy_account_999999,UndistributedProfits/Losses,l10n_eg.egypt_chart_template_standard,999999,account.data_unaffected_earnings,False
